
Removed words by operation:
	BABELNET
		Tokens: 0
		Types: 0
	LENGTH_GT_1_LT_3
		Tokens: 0
		Types: 0
	BLACKLIST
		Tokens: 0
		Types: 0
	FWL
		Tokens: 0
		Types: 0
	FREQ_EQ_1
		Tokens: 0
		Types: 0

Unknown words by operation:
	NOT_IN_COLLECTION
		Tokens: 0
		Types: 0
	LEMMA_RANK_GT_AVG_RANK
		Tokens: 0
		Types: 0
	WORD_RANK_GT_AVG_RANK
		Tokens: 0
		Types: 0
	ANTONYM_RANK_GT_AVG_RANK
		Tokens: 0
		Types: 0
	NOT_IN_USER_MODEL
		Tokens: 0
		Types: 0
	NOT_IN_COLLECTION_NO_NE
		Tokens: 0
		Types: 0


%%%%%%%%%%%%%%%%%%%%%%%%%%%%%%%%%%%%%%%%%%%%
%                    Diff                  %
%%%%%%%%%%%%%%%%%%%%%%%%%%%%%%%%%%%%%%%%%%%%

Size of tokens/types in Mu: 288181/8648
Size of tokens/types in Md: 0/0
Size of diff: 0

NOT in Collection (FWL):   0
In Collection (FWL):       0
In Collection (FWL + POS): 0

Word                  |  POS      |  Rank     |  in Mu    |  in Mc (POS)   |  in Mc  
-------------------------------------------------------------------------------------------------------




Unique words (size: 0, lower case) without POS:

