
Removed words by operation:
	BABELNET
		Tokens: 0
		Types: 0
	LENGTH_GT_1_LT_3
		Tokens: 0
		Types: 0
	BLACKLIST
		Tokens: 0
		Types: 0
	FWL
		Tokens: 0
		Types: 0
	FREQ_EQ_1
		Tokens: 0
		Types: 0

Unknown words by operation:
	NOT_IN_COLLECTION
		Tokens: 0
		Types: 0
	LEMMA_RANK_GT_AVG_RANK
		Tokens: 206
		Types: 189
		ablation#NN          2    
		abnormal#JJ          1    
		actionable#JJ        1    
		adjuvant#JJ          1    
		adverse#JJ           1    
		aggressiveness#NN    1    
		altered#JJ           1    
		anatomic#JJ          1    
		anatomy#NN           1    
		androgen#NN          1    
		anterior#JJ          1    
		antigen#NN           2    
		apical#JJ            1    
		arrow#NN             1    
		autopsy#NN           1    
		axial#JJ             1    
		benign#JJ            1    
		biochemical#JJ       2    
		biopsy#              1    
		biopsy#NN            2    
		biopsy#NNS           2    
		brachytherapy#       1    
		bundle#NN            1    
		bundle#NNS           1    
		capsule#NN           1    
		caucasian#JJ         1    
		characterization#NN  1    
		characterize#VBP     1    
		charitable#JJ        1    
		clinician#NN         1    
		clinician#NNS        1    
		coefficient#NN       1    
		cohort#NN            1    
		coil#                1    
		coil#NN              1    
		coil#NNS             1    
		comorbidities#NNS    1    
		complement#NN        1    
		comprise#VBP         1    
		conceivable#JJ       1    
		confer#VBP           1    
		confirmatory#JJ      1    
		conflicting#JJ       1    
		contour#NNS          1    
		contraindication#NNS 1    
		declare#             1    
		decrease#            1    
		decrease#NN          1    
		defer#               1    
		definitive#JJ        2    
		delineation#NN       1    
		dental#              1    
		diagnostic#JJ        1    
		diffusion#NN         1    
		disagreement#NN      1    
		disappointing#JJ     1    
		discomfort#NN        1    
		discontinuation#NN   1    
		distorted#JJ         1    
		elevated#JJ          2    
		embark#VBP           1    
		enhancement#NN       1    
		equivocal#JJ         1    
		erectile#JJ          1    
		evasive#JJ           1    
		evolve#              1    
		excision#NN          1    
		expectancy#NN        1    
		facile#JJ            1    
		focal#JJ             1    
		fossa#NN             1    
		fuse#                1    
		fuse#NN              1    
		gadolinium#NN        1    
		gantry#NN            1    
		glandular#JJ         1    
		granulation#NN       1    
		hazard#NN            1    
		hemorrhage#NN        1    
		hereditary#JJ        1    
		histopathology#NN    1    
		hotspot#NN           1    
		hyperplasia#NN       1    
		hypertension#NN      1    
		inappropriately#RB   1    
		indolent#JJ          1    
		instrumentation#     1    
		interval#NN          1    
		intravenous#JJ       1    
		invasive#JJ          1    
		invasiveness#NN      1    
		kinetics#            1    
		laterality#NN        1    
		lesion#NN            1    
		lesion#NNS           2    
		lethal#JJ            1    
		longevity#NN         1    
		lymph#NN             1    
		magnet#NN            1    
		malignancy#NN        1    
		marker#NN            1    
		metastatic#JJ        1    
		microscopic#JJ       1    
		midline#NN           1    
		modality#NNS         1    
		modification#NNS     1    
		navigation#          1    
		obscure#JJ           1    
		oncologist#NNS       1    
		oncology#            1    
		onset#NN             1    
		optimization#        1    
		overdiagnosis#NN     1    
		overlap#VBP          1    
		overtreatment#NN     1    
		paradox#NN           1    
		parenchyma#NN        1    
		pathologic#JJ        1    
		pathology#NN         1    
		peripheral#JJ        1    
		personalized#JJ      1    
		pinto#               1    
		portend#VBP          1    
		postoperative#JJ     1    
		preclude#            1    
		predictor#NN         1    
		predominant#JJ       1    
		premium#NN           1    
		preventive#          1    
		prognosis#NN         1    
		prone#JJ             1    
		prostate#            2    
		prostate#NN          2    
		prostate#NNS         1    
		prostatectomy#NN     1    
		prostatic#JJ         1    
		prostatitis#NN       1    
		protracted#JJ        1    
		rad#                 2    
		radiology#           1    
		rectal#              1    
		rectal#JJ            2    
		recur#               1    
		recurrence#NN        2    
		recurrent#JJ         2    
		residual#JJ          1    
		resonance#           1    
		resonance#NN         2    
		restriction#NN       1    
		salami#              1    
		salvage#NN           1    
		satisfactory#JJ      1    
		scan#                1    
		scan#NNS             1    
		scanner#NN           1    
		scanner#NNS          1    
		scar#NN              1    
		seminal#JJ           1    
		sepsis#NN            1    
		serum#NN             1    
		socioeconomic#JJ     1    
		sparse#JJ            1    
		specificity#NN       1    
		specimen#NNS         1    
		staging#NN           1    
		stratification#NN    1    
		stroma#NN            1    
		substitute#VBP       1    
		suggestive#JJ        1    
		suppression#NN       1    
		surrogate#           1    
		tailor#VBP           1    
		template#NN          1    
		therapeutic#JJ       1    
		tomography#NN        1    
		tract#               1    
		transducer#          1    
		ultrasound#          1    
		ultrasound#NN        2    
		undergo#             2    
		undergo#VBP          1    
		undetectable#JJ      1    
		upgrade#             1    
		urethra#NN           1    
		urinary#             1    
		urologic#            1    
		validation#NN        1    
		vesicle#NN           1    
		washout#NN           1    
	WORD_RANK_GT_AVG_RANK
		Tokens: 0
		Types: 0
	ANTONYM_RANK_GT_AVG_RANK
		Tokens: 9
		Types: 9
		guided#JJ            1    
		heterogeneous#JJ     1    
		incurable#JJ         1    
		molar#JJ             1    
		nonmetallic#JJ       1    
		reversible#JJ        1    
		unassisted#JJ        1    
		untraceable#JJ       1    
		unworldly#JJ         1    
	NOT_IN_USER_MODEL
		Tokens: 668
		Types: 668
		ADCs#NNS             1    
		Ablation#NN          1    
		Active#JJ            1    
		African#JJ           1    
		Agreement#NNP        1    
		American#NNP         1    
		Another#DT           1    
		Antigen#NN           1    
		Applications#NNS     1    
		Approximately#RB     1    
		Aside#RB             1    
		Assessment#NNP       1    
		Association#NNP      1    
		Before#IN            1    
		Biochemical#JJ       1    
		Biopsies#NNS         1    
		Biopsy#NN            1    
		Biopsy#NNP           1    
		Brachytherapy#NNP    1    
		Branch#NNP           1    
		CANCER#NNP           1    
		COIL#NNP             1    
		Cancer#NN            1    
		Cancer#NNP           1    
		Caucasian#JJ         1    
		Center#NNP           1    
		Characterization#NN  1    
		Charitable#JJ        1    
		Chief#NNP            1    
		Clinical#JJ          1    
		Clinician#NN         1    
		Clinicians#NNS       1    
		College#NNP          1    
		Company#NNP          1    
		Cooperative#NNP      1    
		Data#NNP             1    
		Decision#NNP         1    
		Decisions#NNS        1    
		Definitive#JJ        1    
		Dental#NNP           1    
		Despite#IN           1    
		Detection#NN         1    
		Development#NNP      1    
		Device#NNP           1    
		Digital#NNP          1    
		Director#NNP         1    
		Distinct#JJ          1    
		Distribution#NN      1    
		Drive#VB             1    
		Dynamic#NNP          1    
		Elevated#JJ          1    
		Epstein#NN           1    
		Evaluation#NN        1    
		Examination#NNP      1    
		FIGURE#NN            1    
		Fellow#NNP           1    
		Force#NNP            1    
		Further#JJ           1    
		Fusing#NNP           1    
		Guide#NNP            1    
		HIGH#NN              1    
		Head#NNP             1    
		Health#NNP           1    
		High#JJ              1    
		High#NNP             1    
		However#RB           1    
		Image#NN             1    
		Images#NNPS          1    
		Imaging#NNP          1    
		Impact#NN            1    
		Initial#JJ           1    
		Institute#NNP        1    
		Institutes#NNP       1    
		Instrumentation#NNP  1    
		Integrated#NNP       1    
		Journal#NNP          1    
		Lesions#NNS          1    
		Level#NN             1    
		Long#JJ              1    
		Lower#NNP            1    
		MONTH#NN             1    
		MONTH#NNP            1    
		Magnetic#JJ          1    
		Male#NNP             1    
		Medical#NNP          1    
		Methods#NNS          1    
		Molecular#JJ         1    
		Moreover#RB          1    
		NUMBER#NNP           1    
		Navigation#NNP       1    
		Needle#NNP           1    
		Negative#JJ          1    
		Oncology#NNP         1    
		Optimization#NNP     1    
		Patent#NN            1    
		Patient#NN           1    
		Patient#NNP          1    
		Patients#NNS         1    
		Populations#NNPS     1    
		Populations#NNS      1    
		Positive#JJ          1    
		Post#NNP             1    
		Predicting#NNP       1    
		Preventive#NNP       1    
		Previous#JJ          1    
		Prior#JJ             1    
		Procedure#NNP        1    
		Prostate#JJ          1    
		Prostate#NN          1    
		Prostate#NNP         1    
		RADS#NN              1    
		RADS#NNPS            1    
		Radiation#NNP        1    
		Radiology#NNP        1    
		Rectal#JJ            1    
		Rectal#NNP           1    
		Recurrence#NN        1    
		Recurrent#JJ         1    
		Repeat#NN            1    
		Reporting#NNP        1    
		Resonance#NN         1    
		Resonance#NNP        1    
		Rise#NN              1    
		Risk#NN              1    
		Risk#NNP             1    
		Room#NN              1    
		Salami#NNP           1    
		Scholars#NNPS        1    
		Society#NNP          1    
		Specific#JJ          1    
		Staff#NN             1    
		Surgery#NNP          1    
		Surgical#NNP         1    
		Symptoms#NNPS        1    
		TRUS#NN              1    
		TRUS#NNS             1    
		Task#NNP             1    
		Therapy#NN           1    
		Trackable#JJ         1    
		Tract#NNP            1    
		Transducer#NNP       1    
		Treatment#NN         1    
		Treatment#NNP        1    
		Tumors#NNS           1    
		Ultrasound#NN        1    
		Ultrasound#NNP       1    
		Undergo#NNP          1    
		Urinary#NNP          1    
		Urologic#NNP         1    
		Utility#NN           1    
		VALUE#NN             1    
		VOLUME#NNP           1    
		Version#NNP          1    
		What#WDT             1    
		Year#NN              1    
		ability#NN           1    
		ablation#NN          1    
		abnormal#JJ          1    
		absence#NN           1    
		acquisition#NN       1    
		across#IN            1    
		actionable#JJ        1    
		adjust#VBP           1    
		adjuvant#JJ          1    
		adverse#JJ           1    
		advocate#VBP         1    
		agent#NN             1    
		ages#NNS             1    
		aggressiveness#NN    1    
		agree#VBP            1    
		alone#RB             1    
		alter#VB             1    
		alter#VBP            1    
		altered#JJ           1    
		anatomic#JJ          1    
		anatomy#NN           1    
		andor#NN             1    
		androgen#NN          1    
		answer#NN            1    
		anterior#JJ          1    
		antigen#NN           1    
		anxiety#NN           1    
		apical#JJ            1    
		apparent#JJ          1    
		appear#VBP           1    
		approximately#RB     1    
		areas#NNS            1    
		arguments#NNS        1    
		array#NN             1    
		arrival#NN           1    
		arrow#NN             1    
		aspect#NN            1    
		aspects#NNS          1    
		assess#VB            1    
		assessment#NN        1    
		assist#VB            1    
		assisted#JJ          1    
		autopsy#NN           1    
		avoid#VBP            1    
		axial#JJ             1    
		background#NN        1    
		barely#RB            1    
		base#NN              1    
		basis#NN             1    
		begin#VB             1    
		begin#VBP            1    
		benefit#VBP          1    
		benign#JJ            1    
		best#RB              1    
		biochemical#JJ       1    
		biological#JJ        1    
		biopsies#NNS         1    
		biopsy#NN            1    
		black#JJ             1    
		bore#VBN             1    
		breast#NN            1    
		bright#JJ            1    
		broad#JJ             1    
		brown#JJ             1    
		bundle#NN            1    
		bundles#NNS          1    
		burden#NN            1    
		cancer#NN            1    
		cancers#NNS          1    
		candidates#NNS       1    
		capsule#NN           1    
		care#NN              1    
		careful#JJ           1    
		carry#VBP            1    
		cells#NNS            1    
		center#NN            1    
		challenges#NNS       1    
		chance#NN            1    
		characterize#VBP     1    
		circumstances#NNS    1    
		clinical#JJ          1    
		clues#NNS            1    
		coefficient#NN       1    
		cognitive#JJ         1    
		cohort#NN            1    
		coil#NN              1    
		coils#NNS            1    
		colleagues#NNS       1    
		come#VBP             1    
		comorbidities#NNS    1    
		compelling#JJ        1    
		complement#NN        1    
		complete#JJ          1    
		completely#RB        1    
		complex#JJ           1    
		complications#NNS    1    
		comprehensive#JJ     1    
		comprise#VBP         1    
		conceivable#JJ       1    
		confer#VBP           1    
		confidence#NN        1    
		confirm#VBP          1    
		confirmatory#JJ      1    
		conflicting#JJ       1    
		continue#VB          1    
		contours#NNS         1    
		contraindications#NNS 1    
		contribute#VBP       1    
		controlled#JJ        1    
		controversies#NNS    1    
		controversy#NN       1    
		cores#NNS            1    
		correlation#NN       1    
		course#NN            1    
		create#VB            1    
		cryotherapy#NN       1    
		curable#JJ           1    
		curve#NN             1    
		damage#NN            1    
		date#NN              1    
		death#NN             1    
		deaths#NNS           1    
		debate#NN            1    
		debate#VB            1    
		decide#VBP           1    
		decision#NN          1    
		decisions#NNS        1    
		declare#VB           1    
		decrease#NN          1    
		decrease#VB          1    
		defer#VB             1    
		definitive#JJ        1    
		degree#NN            1    
		delay#NN             1    
		delay#VBP            1    
		delineation#NN       1    
		dense#JJ             1    
		depth#NN             1    
		determination#NN     1    
		diabetes#NN          1    
		diagnosis#NN         1    
		diagnostic#JJ        1    
		diffusion#NN         1    
		diffusivity#NN       1    
		digital#JJ           1    
		disagreement#NN      1    
		disappointing#JJ     1    
		discomfort#NN        1    
		discontinuation#NN   1    
		discussions#NNS      1    
		disease#NN           1    
		diseases#NNS         1    
		distal#JJ            1    
		distant#JJ           1    
		distinct#JJ          1    
		distorted#JJ         1    
		dose#NN              1    
		duration#NN          1    
		early#JJ             1    
		early#RB             1    
		education#NN         1    
		effects#NNS          1    
		efficacy#NN          1    
		electroporation#NN   1    
		elevated#JJ          1    
		eligible#JJ          1    
		eliminate#VB         1    
		embark#VBP           1    
		emphasis#NN          1    
		enable#VBP           1    
		encouraging#JJ       1    
		enhancement#NN       1    
		enough#RB            1    
		equivocal#JJ         1    
		erectile#JJ          1    
		establish#VBP        1    
		evasive#JJ           1    
		evidence#NN          1    
		evolve#VB            1    
		examination#NN       1    
		examine#VBP          1    
		excision#NN          1    
		expectancy#NN        1    
		experience#NN        1    
		experts#NNS          1    
		explain#VBP          1    
		explanation#NN       1    
		express#VBP          1    
		extent#NN            1    
		facile#JJ            1    
		fall#VBP             1    
		family#NN            1    
		favorable#JJ         1    
		features#NNS         1    
		findings#NNS         1    
		focal#JJ             1    
		follow#VB            1    
		follow#VBP           1    
		fossa#NN             1    
		found#VBD            1    
		fraction#NN          1    
		functional#JJ        1    
		fuse#NN              1    
		gadolinium#NN        1    
		gantry#NN            1    
		generous#JJ          1    
		genetic#JJ           1    
		glandular#JJ         1    
		grade#NN             1    
		granulation#NN       1    
		group#NN             1    
		guidance#NN          1    
		guide#NN             1    
		guide#VB             1    
		guidelines#NNS       1    
		hands#NNS            1    
		harbor#VBP           1    
		hazard#NN            1    
		healing#NN           1    
		health#NN            1    
		heart#NN             1    
		help#NN              1    
		help#VB              1    
		helpful#JJ           1    
		hemorrhage#NN        1    
		hereditary#JJ        1    
		histopathology#NN    1    
		homogeneous#JJ       1    
		hopefully#RB         1    
		hotspot#NN           1    
		hyperplasia#NN       1    
		hypertension#NN      1    
		identification#NN    1    
		imaging#NN           1    
		impact#NN            1    
		imperfect#JJ         1    
		inappropriately#RB   1    
		index#NN             1    
		indicate#VBP         1    
		individual#NN        1    
		indolent#JJ          1    
		instance#NN          1    
		institution#NN       1    
		institutions#NNS     1    
		intellectual#JJ      1    
		intensity#NN         1    
		intensive#JJ         1    
		international#JJ     1    
		interval#NN          1    
		intravenous#JJ       1    
		invasion#NN          1    
		invasive#JJ          1    
		invasiveness#NN      1    
		invisible#JJ         1    
		involved#JJ          1    
		involvement#NN       1    
		irreversible#JJ      1    
		kinetics#NNS         1    
		landscape#NN         1    
		laser#NN             1    
		later#JJ             1    
		later#RB             1    
		laterality#NN        1    
		lesion#NN            1    
		lesions#NNS          1    
		lethal#JJ            1    
		life#NN              1    
		list#NN              1    
		little#JJ            1    
		located#JJ           1    
		long#RB              1    
		longevity#NN         1    
		lymph#NN             1    
		machine#NN           1    
		magnet#NN            1    
		magnetic#JJ          1    
		majority#NN          1    
		make#VB              1    
		malignancy#NN        1    
		management#NN        1    
		mandatory#JJ         1    
		margin#NN            1    
		marker#NN            1    
		meaningful#JJ        1    
		meanwhile#RB         1    
		measures#NNS         1    
		meta#NN              1    
		metallic#JJ          1    
		metastatic#JJ        1    
		microscopic#JJ       1    
		midline#NN           1    
		modalities#NNS       1    
		moderate#JJ          1    
		modifications#NNS    1    
		monitor#NN           1    
		monitor#VB           1    
		monitoring#NN        1    
		need#MD              1    
		needle#NN            1    
		needles#NNS          1    
		nerve#NN             1    
		nests#NNS            1    
		never#RB             1    
		nonmagnetic#JJ       1    
		nonspecific#JJ       1    
		normal#JJ            1    
		obscure#JJ           1    
		older#JJR            1    
		once#IN              1    
		oncologists#NNS      1    
		ongoing#JJ           1    
		online#NN            1    
		only#JJ              1    
		onset#NN             1    
		operator#NN          1    
		operators#NNS        1    
		opposite#JJ          1    
		outcome#NN           1    
		outer#JJ             1    
		overall#JJ           1    
		overdiagnosis#NN     1    
		overlap#VBP          1    
		oversample#NN        1    
		overtreatment#NN     1    
		packed#JJ            1    
		paradigms#NNS        1    
		paradox#NN           1    
		parenchyma#NN        1    
		partial#JJ           1    
		partnership#NN       1    
		patent#NN            1    
		pathologic#JJ        1    
		pathology#NN         1    
		patient#JJ           1    
		penda#NN             1    
		periods#NNS          1    
		peripheral#JJ        1    
		permit#VBP           1    
		personalized#JJ      1    
		physicians#NNS       1    
		pinto#NNP            1    
		planning#NN          1    
		plans#NNS            1    
		play#VB              1    
		population#NN        1    
		populations#NNS      1    
		portend#VBP          1    
		possible#RB          1    
		postoperative#JJ     1    
		precision#NN         1    
		preclude#VB          1    
		predictor#NN         1    
		predominant#JJ       1    
		premium#NN           1    
		preparation#NN       1    
		presentation#NN      1    
		private#JJ           1    
		probably#RB          1    
		professional#JJ      1    
		prognosis#NN         1    
		progress#VB          1    
		progressive#JJ       1    
		promise#NN           1    
		prone#JJ             1    
		prostate#NN          1    
		prostatectomy#NN     1    
		prostates#NNS        1    
		prostatic#JJ         1    
		prostatitis#NN       1    
		protocol#NN          1    
		protocols#NNS        1    
		protracted#JJ        1    
		public#JJ            1    
		pulse#NN             1    
		quality#NN           1    
		question#NN          1    
		race#NN              1    
		radical#JJ           1    
		rapid#JJ             1    
		ratios#NNS           1    
		reach#VBP            1    
		realm#NN             1    
		reasonable#JJ        1    
		recommendation#NN    1    
		rectal#JJ            1    
		recur#VB             1    
		recurrence#NN        1    
		recurrent#JJ         1    
		regard#NN            1    
		register#VBP         1    
		report#NN            1    
		reporting#NN         1    
		requirements#NNS     1    
		residual#JJ          1    
		resolution#NN        1    
		resonance#NN         1    
		restriction#NN       1    
		result#VB            1    
		risk#NN              1    
		risk#VB              1    
		risk#VBP             1    
		role#NN              1    
		routine#JJ           1    
		rules#NNS            1    
		safely#RB            1    
		salvage#NN           1    
		satisfactory#JJ      1    
		scan#VB              1    
		scanner#NN           1    
		scanners#NNS         1    
		scans#NNS            1    
		scar#NN              1    
		score#NN             1    
		score#VBP            1    
		scores#NNS           1    
		screening#NN         1    
		select#JJ            1    
		seminal#JJ           1    
		sensitivity#NN       1    
		sepsis#NN            1    
		sequences#NNS        1    
		serum#NN             1    
		serve#VB             1    
		signal#JJ            1    
		site#NN              1    
		socioeconomic#JJ     1    
		software#NN          1    
		sparse#JJ            1    
		specificity#NN       1    
		specimens#NNS        1    
		spectrum#NN          1    
		staging#NN           1    
		stand#VBP            1    
		standardized#JJ      1    
		standing#NN          1    
		stratification#NN    1    
		stroke#NN            1    
		stroma#NN            1    
		strong#JJ            1    
		subsequent#JJ        1    
		substantial#JJ       1    
		substitute#VBP       1    
		success#NN           1    
		suggest#VB           1    
		suggest#VBP          1    
		suggestive#JJ        1    
		suite#NN             1    
		superior#JJ          1    
		support#NN           1    
		suppression#NN       1    
		surgery#NN           1    
		surgical#JJ          1    
		surprise#NN          1    
		surprising#JJ        1    
		surrogate#JJ         1    
		surveillance#NN      1    
		survival#NN          1    
		suspicion#NN         1    
		suspicious#JJ        1    
		symptoms#NNS         1    
		syndrome#NN          1    
		systematic#JJ        1    
		tables#NNS           1    
		tailor#VBP           1    
		teach#VB             1    
		technologies#NNS     1    
		template#NN          1    
		temporal#JJ          1    
		texture#NN           1    
		therapeutic#JJ       1    
		therapy#NN           1    
		thereby#RB           1    
		thermometry#NN       1    
		thorough#JJ          1    
		tightly#RB           1    
		tissue#NN            1    
		tomography#NN        1    
		tool#NN              1    
		track#NN             1    
		traditionally#RB     1    
		training#NN          1    
		transition#NN        1    
		treat#VBP            1    
		treated#JJ           1    
		treatment#NN         1    
		trial#NN             1    
		truly#RB             1    
		tumor#NN             1    
		tumors#NNS           1    
		ultrasound#NN        1    
		uncomfortable#JJ     1    
		uncommon#JJ          1    
		undergo#VB           1    
		undergo#VBP          1    
		undetectable#JJ      1    
		unguided#JJ          1    
		upgrading#NN         1    
		urethra#NN           1    
		utility#NN           1    
		validation#NN        1    
		valuable#JJ          1    
		versus#CC            1    
		vesicle#NN           1    
		volume#NN            1    
		washout#NN           1    
		weeks#NNS            1    
		widespread#JJ        1    
		wives#NNS            1    
		wood#NN              1    
		worse#JJR            1    
		years#NNS            1    
		young#JJ             1    
		younger#JJR          1    
	NOT_IN_COLLECTION_NO_NE
		Tokens: 9
		Types: 9
		ADCs#NNS             1    
		TRUS#NN              1    
		TRUS#NNS             1    
		andor#NN             1    
		cryotherapy#NN       1    
		diffusivity#NN       1    
		electroporation#NN   1    
		oversample#NN        1    
		thermometry#NN       1    


%%%%%%%%%%%%%%%%%%%%%%%%%%%%%%%%%%%%%%%%%%%%
%                    Diff                  %
%%%%%%%%%%%%%%%%%%%%%%%%%%%%%%%%%%%%%%%%%%%%

Size of tokens/types in Mu: 10480/1793
Size of tokens/types in Md: 3439/1115
Size of diff: 224

NOT in Collection (FWL):   9
In Collection (FWL):       36
In Collection (FWL + POS): 179

Word                  |  POS      |  Rank     |  in Mu    |  in Mc (POS)   |  in Mc  
-------------------------------------------------------------------------------------------------------
ADCs                  |  NNS      |  -1       |  false   |  false         |  false  
TRUS                  |  NN       |  -1       |  false   |  false         |  false  
TRUS                  |  NNS      |  -1       |  false   |  false         |  false  
andor                 |  NN       |  -1       |  false   |  false         |  false  
cryotherapy           |  NN       |  -1       |  false   |  false         |  false  
diffusivity           |  NN       |  -1       |  false   |  false         |  false  
electroporation       |  NN       |  -1       |  false   |  false         |  false  
oversample            |  NN       |  -1       |  false   |  false         |  false  
thermometry           |  NN       |  -1       |  false   |  false         |  false  

Biopsy                |  NNP      |  15859    |  false   |  false         |  true   
Brachytherapy         |  NNP      |  99850    |  false   |  false         |  true   
COIL                  |  NNP      |  18649    |  false   |  false         |  true   
Dental                |  NNP      |  9048     |  false   |  false         |  true   
Fusing                |  NNP      |  33588    |  false   |  false         |  true   
Instrumentation       |  NNP      |  16376    |  false   |  false         |  true   
Navigation            |  NNP      |  10399    |  false   |  false         |  true   
Oncology              |  NNP      |  25817    |  false   |  false         |  true   
Optimization          |  NNP      |  21059    |  false   |  false         |  true   
Preventive            |  NNP      |  9590     |  false   |  false         |  true   
Prostate              |  JJ       |  9402     |  false   |  false         |  true   
Prostate              |  NNP      |  9402     |  false   |  false         |  true   
RADS                  |  NN       |  72869    |  false   |  false         |  true   
RADS                  |  NNPS     |  72869    |  false   |  false         |  true   
Radiology             |  NNP      |  35603    |  false   |  false         |  true   
Rectal                |  NNP      |  30846    |  false   |  false         |  true   
Resonance             |  NNP      |  11381    |  false   |  false         |  true   
Salami                |  NNP      |  28925    |  false   |  false         |  true   
Tract                 |  NNP      |  9917     |  false   |  false         |  true   
Transducer            |  NNP      |  28539    |  false   |  false         |  true   
Ultrasound            |  NNP      |  15881    |  false   |  false         |  true   
Undergo               |  NNP      |  9649     |  false   |  false         |  true   
Urinary               |  NNP      |  20950    |  false   |  false         |  true   
Urologic              |  NNP      |  76557    |  false   |  false         |  true   
declare               |  VB       |  7739     |  false   |  false         |  true   
decrease              |  VB       |  7984     |  false   |  false         |  true   
defer                 |  VB       |  17709    |  false   |  false         |  true   
evolve                |  VB       |  9121     |  false   |  false         |  true   
kinetics              |  NNS      |  31047    |  false   |  false         |  true   
pinto                 |  NNP      |  27953    |  false   |  false         |  true   
preclude              |  VB       |  17048    |  false   |  false         |  true   
recur                 |  VB       |  28616    |  false   |  false         |  true   
scan                  |  VB       |  10598    |  false   |  false         |  true   
surrogate             |  JJ       |  13872    |  false   |  false         |  true   
undergo               |  VB       |  9649     |  false   |  false         |  true   
upgrading             |  NN       |  16830    |  false   |  false         |  true   

Ablation              |  NN       |  44242    |  false   |  true          |  true   
Antigen               |  NN       |  29313    |  false   |  true          |  true   
Biochemical           |  JJ       |  20193    |  false   |  true          |  true   
Biopsies              |  NNS      |  34018    |  false   |  true          |  true   
Biopsy                |  NN       |  15859    |  false   |  true          |  true   
Caucasian             |  JJ       |  15181    |  false   |  true          |  true   
Characterization      |  NN       |  12255    |  false   |  true          |  true   
Charitable            |  JJ       |  8814     |  false   |  true          |  true   
Clinician             |  NN       |  22615    |  false   |  true          |  true   
Clinicians            |  NNS      |  14391    |  false   |  true          |  true   
Definitive            |  JJ       |  8766     |  false   |  true          |  true   
Elevated              |  JJ       |  9794     |  false   |  true          |  true   
Lesions               |  NNS      |  14237    |  false   |  true          |  true   
Molecular             |  JJ       |  7595     |  false   |  true          |  true   
Prostate              |  NN       |  9402     |  false   |  true          |  true   
Rectal                |  JJ       |  30846    |  false   |  true          |  true   
Recurrence            |  NN       |  14843    |  false   |  true          |  true   
Recurrent             |  JJ       |  14455    |  false   |  true          |  true   
Resonance             |  NN       |  11381    |  false   |  true          |  true   
Trackable             |  JJ       |  99194    |  false   |  true          |  true   
Ultrasound            |  NN       |  15881    |  false   |  true          |  true   
ablation              |  NN       |  44242    |  false   |  true          |  true   
abnormal              |  JJ       |  10777    |  false   |  true          |  true   
actionable            |  JJ       |  39963    |  false   |  true          |  true   
adjuvant              |  JJ       |  43649    |  false   |  true          |  true   
adverse               |  JJ       |  7861     |  false   |  true          |  true   
aggressiveness        |  NN       |  22384    |  false   |  true          |  true   
altered               |  JJ       |  13644    |  false   |  true          |  true   
anatomic              |  JJ       |  36718    |  false   |  true          |  true   
anatomy               |  NN       |  10893    |  false   |  true          |  true   
androgen              |  NN       |  59172    |  false   |  true          |  true   
anterior              |  JJ       |  15390    |  false   |  true          |  true   
antigen               |  NN       |  29313    |  false   |  true          |  true   
apical                |  JJ       |  55746    |  false   |  true          |  true   
arrow                 |  NN       |  8049     |  false   |  true          |  true   
assisted              |  JJ       |  18210    |  false   |  true          |  true   
autopsy               |  NN       |  11456    |  false   |  true          |  true   
axial                 |  JJ       |  23946    |  false   |  true          |  true   
benign                |  JJ       |  9345     |  false   |  true          |  true   
biochemical           |  JJ       |  20193    |  false   |  true          |  true   
biopsies              |  NNS      |  34018    |  false   |  true          |  true   
biopsy                |  NN       |  15859    |  false   |  true          |  true   
bundle                |  NN       |  9932     |  false   |  true          |  true   
bundles               |  NNS      |  15947    |  false   |  true          |  true   
capsule               |  NN       |  12318    |  false   |  true          |  true   
characterize          |  VBP      |  9584     |  false   |  true          |  true   
coefficient           |  NN       |  10946    |  false   |  true          |  true   
cohort                |  NN       |  10269    |  false   |  true          |  true   
coil                  |  NN       |  18649    |  false   |  true          |  true   
coils                 |  NNS      |  19014    |  false   |  true          |  true   
comorbidities         |  NNS      |  49402    |  false   |  true          |  true   
complement            |  NN       |  15676    |  false   |  true          |  true   
comprise              |  VBP      |  13290    |  false   |  true          |  true   
conceivable           |  JJ       |  14734    |  false   |  true          |  true   
confer                |  VBP      |  18431    |  false   |  true          |  true   
confirmatory          |  JJ       |  28424    |  false   |  true          |  true   
conflicting           |  JJ       |  8354     |  false   |  true          |  true   
contours              |  NNS      |  14112    |  false   |  true          |  true   
contraindications     |  NNS      |  57315    |  false   |  true          |  true   
curable               |  JJ       |  35287    |  false   |  true          |  true   
decrease              |  NN       |  8512     |  false   |  true          |  true   
definitive            |  JJ       |  8766     |  false   |  true          |  true   
delineation           |  NN       |  35857    |  false   |  true          |  true   
diagnostic            |  JJ       |  7914     |  false   |  true          |  true   
diffusion             |  NN       |  14432    |  false   |  true          |  true   
disagreement          |  NN       |  8727     |  false   |  true          |  true   
disappointing         |  JJ       |  9132     |  false   |  true          |  true   
discomfort            |  NN       |  8611     |  false   |  true          |  true   
discontinuation       |  NN       |  54793    |  false   |  true          |  true   
distorted             |  JJ       |  15248    |  false   |  true          |  true   
elevated              |  JJ       |  9794     |  false   |  true          |  true   
embark                |  VBP      |  19133    |  false   |  true          |  true   
enhancement           |  NN       |  12027    |  false   |  true          |  true   
equivocal             |  JJ       |  30627    |  false   |  true          |  true   
erectile              |  JJ       |  33109    |  false   |  true          |  true   
evasive               |  JJ       |  23895    |  false   |  true          |  true   
excision              |  NN       |  23786    |  false   |  true          |  true   
expectancy            |  NN       |  11225    |  false   |  true          |  true   
facile                |  JJ       |  29823    |  false   |  true          |  true   
focal                 |  JJ       |  9641     |  false   |  true          |  true   
fossa                 |  NN       |  33449    |  false   |  true          |  true   
fuse                  |  NN       |  19220    |  false   |  true          |  true   
gadolinium            |  NN       |  66697    |  false   |  true          |  true   
gantry                |  NN       |  43140    |  false   |  true          |  true   
glandular             |  JJ       |  51985    |  false   |  true          |  true   
granulation           |  NN       |  38450    |  false   |  true          |  true   
hazard                |  NN       |  9966     |  false   |  true          |  true   
hemorrhage            |  NN       |  25840    |  false   |  true          |  true   
hereditary            |  JJ       |  20019    |  false   |  true          |  true   
histopathology        |  NN       |  57585    |  false   |  true          |  true   
homogeneous           |  JJ       |  14901    |  false   |  true          |  true   
hotspot               |  NN       |  44104    |  false   |  true          |  true   
hyperplasia           |  NN       |  43642    |  false   |  true          |  true   
hypertension          |  NN       |  12601    |  false   |  true          |  true   
inappropriately       |  RB       |  23264    |  false   |  true          |  true   
indolent              |  JJ       |  43501    |  false   |  true          |  true   
interval              |  NN       |  9382     |  false   |  true          |  true   
intravenous           |  JJ       |  17862    |  false   |  true          |  true   
invasive              |  JJ       |  10956    |  false   |  true          |  true   
invasiveness          |  NN       |  61185    |  false   |  true          |  true   
irreversible          |  JJ       |  17817    |  false   |  true          |  true   
laterality            |  NN       |  78017    |  false   |  true          |  true   
lesion                |  NN       |  18106    |  false   |  true          |  true   
lesions               |  NNS      |  14237    |  false   |  true          |  true   
lethal                |  JJ       |  8044     |  false   |  true          |  true   
longevity             |  NN       |  11785    |  false   |  true          |  true   
lymph                 |  NN       |  18770    |  false   |  true          |  true   
magnet                |  NN       |  9916     |  false   |  true          |  true   
malignancy            |  NN       |  31719    |  false   |  true          |  true   
marker                |  NN       |  9287     |  false   |  true          |  true   
metallic              |  JJ       |  11165    |  false   |  true          |  true   
metastatic            |  JJ       |  31137    |  false   |  true          |  true   
microscopic           |  JJ       |  13231    |  false   |  true          |  true   
midline               |  NN       |  41599    |  false   |  true          |  true   
modalities            |  NNS      |  21878    |  false   |  true          |  true   
modifications         |  NNS      |  10551    |  false   |  true          |  true   
obscure               |  JJ       |  9619     |  false   |  true          |  true   
oncologists           |  NNS      |  44021    |  false   |  true          |  true   
onset                 |  NN       |  8798     |  false   |  true          |  true   
overdiagnosis         |  NN       |  86012    |  false   |  true          |  true   
overlap               |  VBP      |  21241    |  false   |  true          |  true   
overtreatment         |  NN       |  94805    |  false   |  true          |  true   
paradox               |  NN       |  10018    |  false   |  true          |  true   
parenchyma            |  NN       |  86701    |  false   |  true          |  true   
pathologic            |  JJ       |  37470    |  false   |  true          |  true   
pathology             |  NN       |  14409    |  false   |  true          |  true   
peripheral            |  JJ       |  10649    |  false   |  true          |  true   
personalized          |  JJ       |  17922    |  false   |  true          |  true   
portend               |  VBP      |  38588    |  false   |  true          |  true   
postoperative         |  JJ       |  15509    |  false   |  true          |  true   
predictor             |  NN       |  9908     |  false   |  true          |  true   
predominant           |  JJ       |  15742    |  false   |  true          |  true   
premium               |  NN       |  9677     |  false   |  true          |  true   
prognosis             |  NN       |  15745    |  false   |  true          |  true   
prone                 |  JJ       |  7958     |  false   |  true          |  true   
prostate              |  NN       |  9402     |  false   |  true          |  true   
prostatectomy         |  NN       |  51385    |  false   |  true          |  true   
prostates             |  NNS      |  73931    |  false   |  true          |  true   
prostatic             |  JJ       |  54862    |  false   |  true          |  true   
prostatitis           |  NN       |  62861    |  false   |  true          |  true   
protracted            |  JJ       |  16230    |  false   |  true          |  true   
rectal                |  JJ       |  30846    |  false   |  true          |  true   
recurrence            |  NN       |  14843    |  false   |  true          |  true   
recurrent             |  JJ       |  14455    |  false   |  true          |  true   
residual              |  JJ       |  9527     |  false   |  true          |  true   
resonance             |  NN       |  11381    |  false   |  true          |  true   
restriction           |  NN       |  12518    |  false   |  true          |  true   
salvage               |  NN       |  20498    |  false   |  true          |  true   
satisfactory          |  JJ       |  11238    |  false   |  true          |  true   
scanner               |  NN       |  14012    |  false   |  true          |  true   
scanners              |  NNS      |  19705    |  false   |  true          |  true   
scans                 |  NNS      |  13529    |  false   |  true          |  true   
scar                  |  NN       |  10021    |  false   |  true          |  true   
seminal               |  JJ       |  15240    |  false   |  true          |  true   
sepsis                |  NN       |  42952    |  false   |  true          |  true   
serum                 |  NN       |  12000    |  false   |  true          |  true   
socioeconomic         |  JJ       |  7669     |  false   |  true          |  true   
sparse                |  JJ       |  14364    |  false   |  true          |  true   
specificity           |  NN       |  14703    |  false   |  true          |  true   
specimens             |  NNS      |  10452    |  false   |  true          |  true   
staging               |  NN       |  14148    |  false   |  true          |  true   
stratification        |  NN       |  26394    |  false   |  true          |  true   
stroma                |  NN       |  59432    |  false   |  true          |  true   
substitute            |  VBP      |  11697    |  false   |  true          |  true   
suggestive            |  JJ       |  14649    |  false   |  true          |  true   
suppression           |  NN       |  13614    |  false   |  true          |  true   
tailor                |  VBP      |  23845    |  false   |  true          |  true   
template              |  NN       |  14856    |  false   |  true          |  true   
temporal              |  JJ       |  8068     |  false   |  true          |  true   
therapeutic           |  JJ       |  8580     |  false   |  true          |  true   
tomography            |  NN       |  24797    |  false   |  true          |  true   
ultrasound            |  NN       |  15881    |  false   |  true          |  true   
undergo               |  VBP      |  9649     |  false   |  true          |  true   
undetectable          |  JJ       |  34149    |  false   |  true          |  true   
unguided              |  JJ       |  49499    |  false   |  true          |  true   
urethra               |  NN       |  44443    |  false   |  true          |  true   
validation            |  NN       |  13282    |  false   |  true          |  true   
vesicle               |  NN       |  94842    |  false   |  true          |  true   
washout               |  NN       |  50285    |  false   |  true          |  true   


Unique words (size: 198, lower case) without POS:
ablation
abnormal
actionable
adcs
adjuvant
adverse
aggressiveness
altered
anatomic
anatomy
andor
androgen
anterior
antigen
apical
arrow
assisted
autopsy
axial
benign
biochemical
biopsies
biopsy
brachytherapy
bundle
bundles
capsule
caucasian
characterization
characterize
charitable
clinician
clinicians
coefficient
cohort
coil
coils
comorbidities
complement
comprise
conceivable
confer
confirmatory
conflicting
contours
contraindications
cryotherapy
curable
declare
decrease
defer
definitive
delineation
dental
diagnostic
diffusion
diffusivity
disagreement
disappointing
discomfort
discontinuation
distorted
electroporation
elevated
embark
enhancement
equivocal
erectile
evasive
evolve
excision
expectancy
facile
focal
fossa
fuse
fusing
gadolinium
gantry
glandular
granulation
hazard
hemorrhage
hereditary
histopathology
homogeneous
hotspot
hyperplasia
hypertension
inappropriately
indolent
instrumentation
interval
intravenous
invasive
invasiveness
irreversible
kinetics
laterality
lesion
lesions
lethal
longevity
lymph
magnet
malignancy
marker
metallic
metastatic
microscopic
midline
modalities
modifications
molecular
navigation
obscure
oncologists
oncology
onset
optimization
overdiagnosis
overlap
oversample
overtreatment
paradox
parenchyma
pathologic
pathology
peripheral
personalized
pinto
portend
postoperative
preclude
predictor
predominant
premium
preventive
prognosis
prone
prostate
prostatectomy
prostates
prostatic
prostatitis
protracted
radiology
rads
rectal
recur
recurrence
recurrent
residual
resonance
restriction
salami
salvage
satisfactory
scan
scanner
scanners
scans
scar
seminal
sepsis
serum
socioeconomic
sparse
specificity
specimens
staging
stratification
stroma
substitute
suggestive
suppression
surrogate
tailor
template
temporal
therapeutic
thermometry
tomography
trackable
tract
transducer
trus
ultrasound
undergo
undetectable
unguided
upgrading
urethra
urinary
urologic
validation
vesicle
washout

