
Removed words by operation:
	BABELNET
		Tokens: 0
		Types: 0
	LENGTH_GT_1_LT_3
		Tokens: 0
		Types: 0
	BLACKLIST
		Tokens: 0
		Types: 0
	FWL
		Tokens: 0
		Types: 0
	FREQ_EQ_1
		Tokens: 0
		Types: 0

Unknown words by operation:
	NOT_IN_COLLECTION
		Tokens: 9
		Types: 9
		ADCs#NNS             1    
		TRUS#NN              1    
		TRUS#NNS             1    
		andor#NN             1    
		cryotherapy#NN       1    
		diffusivity#NN       1    
		electroporation#NN   1    
		oversample#NN        1    
		thermometry#NN       1    
	RANK_GT_AVG_RANK
		Tokens: 215
		Types: 215
		Ablation#NN          1    
		Antigen#NN           1    
		Biochemical#JJ       1    
		Biopsies#NNS         1    
		Biopsy#NN            1    
		Biopsy#NNP           1    
		Brachytherapy#NNP    1    
		COIL#NNP             1    
		Caucasian#JJ         1    
		Characterization#NN  1    
		Charitable#JJ        1    
		Clinician#NN         1    
		Clinicians#NNS       1    
		Definitive#JJ        1    
		Dental#NNP           1    
		Elevated#JJ          1    
		Fusing#NNP           1    
		Instrumentation#NNP  1    
		Lesions#NNS          1    
		Molecular#JJ         1    
		Navigation#NNP       1    
		Oncology#NNP         1    
		Optimization#NNP     1    
		Preventive#NNP       1    
		Prostate#JJ          1    
		Prostate#NN          1    
		Prostate#NNP         1    
		RADS#NN              1    
		RADS#NNPS            1    
		Radiology#NNP        1    
		Rectal#JJ            1    
		Rectal#NNP           1    
		Recurrence#NN        1    
		Recurrent#JJ         1    
		Resonance#NN         1    
		Resonance#NNP        1    
		Salami#NNP           1    
		Trackable#JJ         1    
		Tract#NNP            1    
		Transducer#NNP       1    
		Ultrasound#NN        1    
		Ultrasound#NNP       1    
		Undergo#NNP          1    
		Urinary#NNP          1    
		Urologic#NNP         1    
		ablation#NN          1    
		abnormal#JJ          1    
		actionable#JJ        1    
		adjuvant#JJ          1    
		adverse#JJ           1    
		aggressiveness#NN    1    
		altered#JJ           1    
		anatomic#JJ          1    
		anatomy#NN           1    
		androgen#NN          1    
		anterior#JJ          1    
		antigen#NN           1    
		apical#JJ            1    
		arrow#NN             1    
		assisted#JJ          1    
		autopsy#NN           1    
		axial#JJ             1    
		benign#JJ            1    
		biochemical#JJ       1    
		biopsies#NNS         1    
		biopsy#NN            1    
		bundle#NN            1    
		bundles#NNS          1    
		capsule#NN           1    
		characterize#VBP     1    
		coefficient#NN       1    
		cohort#NN            1    
		coil#NN              1    
		coils#NNS            1    
		comorbidities#NNS    1    
		complement#NN        1    
		comprise#VBP         1    
		conceivable#JJ       1    
		confer#VBP           1    
		confirmatory#JJ      1    
		conflicting#JJ       1    
		contours#NNS         1    
		contraindications#NNS 1    
		curable#JJ           1    
		declare#VB           1    
		decrease#NN          1    
		decrease#VB          1    
		defer#VB             1    
		definitive#JJ        1    
		delineation#NN       1    
		diagnostic#JJ        1    
		diffusion#NN         1    
		disagreement#NN      1    
		disappointing#JJ     1    
		discomfort#NN        1    
		discontinuation#NN   1    
		distorted#JJ         1    
		elevated#JJ          1    
		embark#VBP           1    
		enhancement#NN       1    
		equivocal#JJ         1    
		erectile#JJ          1    
		evasive#JJ           1    
		evolve#VB            1    
		excision#NN          1    
		expectancy#NN        1    
		facile#JJ            1    
		focal#JJ             1    
		fossa#NN             1    
		fuse#NN              1    
		gadolinium#NN        1    
		gantry#NN            1    
		glandular#JJ         1    
		granulation#NN       1    
		hazard#NN            1    
		hemorrhage#NN        1    
		hereditary#JJ        1    
		histopathology#NN    1    
		homogeneous#JJ       1    
		hotspot#NN           1    
		hyperplasia#NN       1    
		hypertension#NN      1    
		inappropriately#RB   1    
		indolent#JJ          1    
		interval#NN          1    
		intravenous#JJ       1    
		invasive#JJ          1    
		invasiveness#NN      1    
		irreversible#JJ      1    
		kinetics#NNS         1    
		laterality#NN        1    
		lesion#NN            1    
		lesions#NNS          1    
		lethal#JJ            1    
		longevity#NN         1    
		lymph#NN             1    
		magnet#NN            1    
		malignancy#NN        1    
		marker#NN            1    
		metallic#JJ          1    
		metastatic#JJ        1    
		microscopic#JJ       1    
		midline#NN           1    
		modalities#NNS       1    
		modifications#NNS    1    
		obscure#JJ           1    
		oncologists#NNS      1    
		onset#NN             1    
		overdiagnosis#NN     1    
		overlap#VBP          1    
		overtreatment#NN     1    
		paradox#NN           1    
		parenchyma#NN        1    
		pathologic#JJ        1    
		pathology#NN         1    
		peripheral#JJ        1    
		personalized#JJ      1    
		pinto#NNP            1    
		portend#VBP          1    
		postoperative#JJ     1    
		preclude#VB          1    
		predictor#NN         1    
		predominant#JJ       1    
		premium#NN           1    
		prognosis#NN         1    
		prone#JJ             1    
		prostate#NN          1    
		prostatectomy#NN     1    
		prostates#NNS        1    
		prostatic#JJ         1    
		prostatitis#NN       1    
		protracted#JJ        1    
		rectal#JJ            1    
		recur#VB             1    
		recurrence#NN        1    
		recurrent#JJ         1    
		residual#JJ          1    
		resonance#NN         1    
		restriction#NN       1    
		salvage#NN           1    
		satisfactory#JJ      1    
		scan#VB              1    
		scanner#NN           1    
		scanners#NNS         1    
		scans#NNS            1    
		scar#NN              1    
		seminal#JJ           1    
		sepsis#NN            1    
		serum#NN             1    
		socioeconomic#JJ     1    
		sparse#JJ            1    
		specificity#NN       1    
		specimens#NNS        1    
		staging#NN           1    
		stratification#NN    1    
		stroma#NN            1    
		substitute#VBP       1    
		suggestive#JJ        1    
		suppression#NN       1    
		surrogate#JJ         1    
		tailor#VBP           1    
		template#NN          1    
		temporal#JJ          1    
		therapeutic#JJ       1    
		tomography#NN        1    
		ultrasound#NN        1    
		undergo#VB           1    
		undergo#VBP          1    
		undetectable#JJ      1    
		unguided#JJ          1    
		upgrading#NN         1    
		urethra#NN           1    
		validation#NN        1    
		vesicle#NN           1    
		washout#NN           1    
	NOT_IN_USER_MODEL
		Tokens: 668
		Types: 668
		ADCs#NNS             1    
		Ablation#NN          1    
		Active#JJ            1    
		African#JJ           1    
		Agreement#NNP        1    
		American#NNP         1    
		Another#DT           1    
		Antigen#NN           1    
		Applications#NNS     1    
		Approximately#RB     1    
		Aside#RB             1    
		Assessment#NNP       1    
		Association#NNP      1    
		Before#IN            1    
		Biochemical#JJ       1    
		Biopsies#NNS         1    
		Biopsy#NN            1    
		Biopsy#NNP           1    
		Brachytherapy#NNP    1    
		Branch#NNP           1    
		CANCER#NNP           1    
		COIL#NNP             1    
		Cancer#NN            1    
		Cancer#NNP           1    
		Caucasian#JJ         1    
		Center#NNP           1    
		Characterization#NN  1    
		Charitable#JJ        1    
		Chief#NNP            1    
		Clinical#JJ          1    
		Clinician#NN         1    
		Clinicians#NNS       1    
		College#NNP          1    
		Company#NNP          1    
		Cooperative#NNP      1    
		Data#NNP             1    
		Decision#NNP         1    
		Decisions#NNS        1    
		Definitive#JJ        1    
		Dental#NNP           1    
		Despite#IN           1    
		Detection#NN         1    
		Development#NNP      1    
		Device#NNP           1    
		Digital#NNP          1    
		Director#NNP         1    
		Distinct#JJ          1    
		Distribution#NN      1    
		Drive#VB             1    
		Dynamic#NNP          1    
		Elevated#JJ          1    
		Epstein#NN           1    
		Evaluation#NN        1    
		Examination#NNP      1    
		FIGURE#NN            1    
		Fellow#NNP           1    
		Force#NNP            1    
		Further#JJ           1    
		Fusing#NNP           1    
		Guide#NNP            1    
		HIGH#NN              1    
		Head#NNP             1    
		Health#NNP           1    
		High#JJ              1    
		High#NNP             1    
		However#RB           1    
		Image#NN             1    
		Images#NNPS          1    
		Imaging#NNP          1    
		Impact#NN            1    
		Initial#JJ           1    
		Institute#NNP        1    
		Institutes#NNP       1    
		Instrumentation#NNP  1    
		Integrated#NNP       1    
		Journal#NNP          1    
		Lesions#NNS          1    
		Level#NN             1    
		Long#JJ              1    
		Lower#NNP            1    
		MONTH#NN             1    
		MONTH#NNP            1    
		Magnetic#JJ          1    
		Male#NNP             1    
		Medical#NNP          1    
		Methods#NNS          1    
		Molecular#JJ         1    
		Moreover#RB          1    
		NUMBER#NNP           1    
		Navigation#NNP       1    
		Needle#NNP           1    
		Negative#JJ          1    
		Oncology#NNP         1    
		Optimization#NNP     1    
		Patent#NN            1    
		Patient#NN           1    
		Patient#NNP          1    
		Patients#NNS         1    
		Populations#NNPS     1    
		Populations#NNS      1    
		Positive#JJ          1    
		Post#NNP             1    
		Predicting#NNP       1    
		Preventive#NNP       1    
		Previous#JJ          1    
		Prior#JJ             1    
		Procedure#NNP        1    
		Prostate#JJ          1    
		Prostate#NN          1    
		Prostate#NNP         1    
		RADS#NN              1    
		RADS#NNPS            1    
		Radiation#NNP        1    
		Radiology#NNP        1    
		Rectal#JJ            1    
		Rectal#NNP           1    
		Recurrence#NN        1    
		Recurrent#JJ         1    
		Repeat#NN            1    
		Reporting#NNP        1    
		Resonance#NN         1    
		Resonance#NNP        1    
		Rise#NN              1    
		Risk#NN              1    
		Risk#NNP             1    
		Room#NN              1    
		Salami#NNP           1    
		Scholars#NNPS        1    
		Society#NNP          1    
		Specific#JJ          1    
		Staff#NN             1    
		Surgery#NNP          1    
		Surgical#NNP         1    
		Symptoms#NNPS        1    
		TRUS#NN              1    
		TRUS#NNS             1    
		Task#NNP             1    
		Therapy#NN           1    
		Trackable#JJ         1    
		Tract#NNP            1    
		Transducer#NNP       1    
		Treatment#NN         1    
		Treatment#NNP        1    
		Tumors#NNS           1    
		Ultrasound#NN        1    
		Ultrasound#NNP       1    
		Undergo#NNP          1    
		Urinary#NNP          1    
		Urologic#NNP         1    
		Utility#NN           1    
		VALUE#NN             1    
		VOLUME#NNP           1    
		Version#NNP          1    
		What#WDT             1    
		Year#NN              1    
		ability#NN           1    
		ablation#NN          1    
		abnormal#JJ          1    
		absence#NN           1    
		acquisition#NN       1    
		across#IN            1    
		actionable#JJ        1    
		adjust#VBP           1    
		adjuvant#JJ          1    
		adverse#JJ           1    
		advocate#VBP         1    
		agent#NN             1    
		ages#NNS             1    
		aggressiveness#NN    1    
		agree#VBP            1    
		alone#RB             1    
		alter#VB             1    
		alter#VBP            1    
		altered#JJ           1    
		anatomic#JJ          1    
		anatomy#NN           1    
		andor#NN             1    
		androgen#NN          1    
		answer#NN            1    
		anterior#JJ          1    
		antigen#NN           1    
		anxiety#NN           1    
		apical#JJ            1    
		apparent#JJ          1    
		appear#VBP           1    
		approximately#RB     1    
		areas#NNS            1    
		arguments#NNS        1    
		array#NN             1    
		arrival#NN           1    
		arrow#NN             1    
		aspect#NN            1    
		aspects#NNS          1    
		assess#VB            1    
		assessment#NN        1    
		assist#VB            1    
		assisted#JJ          1    
		autopsy#NN           1    
		avoid#VBP            1    
		axial#JJ             1    
		background#NN        1    
		barely#RB            1    
		base#NN              1    
		basis#NN             1    
		begin#VB             1    
		begin#VBP            1    
		benefit#VBP          1    
		benign#JJ            1    
		best#RB              1    
		biochemical#JJ       1    
		biological#JJ        1    
		biopsies#NNS         1    
		biopsy#NN            1    
		black#JJ             1    
		bore#VBN             1    
		breast#NN            1    
		bright#JJ            1    
		broad#JJ             1    
		brown#JJ             1    
		bundle#NN            1    
		bundles#NNS          1    
		burden#NN            1    
		cancer#NN            1    
		cancers#NNS          1    
		candidates#NNS       1    
		capsule#NN           1    
		care#NN              1    
		careful#JJ           1    
		carry#VBP            1    
		cells#NNS            1    
		center#NN            1    
		challenges#NNS       1    
		chance#NN            1    
		characterize#VBP     1    
		circumstances#NNS    1    
		clinical#JJ          1    
		clues#NNS            1    
		coefficient#NN       1    
		cognitive#JJ         1    
		cohort#NN            1    
		coil#NN              1    
		coils#NNS            1    
		colleagues#NNS       1    
		come#VBP             1    
		comorbidities#NNS    1    
		compelling#JJ        1    
		complement#NN        1    
		complete#JJ          1    
		completely#RB        1    
		complex#JJ           1    
		complications#NNS    1    
		comprehensive#JJ     1    
		comprise#VBP         1    
		conceivable#JJ       1    
		confer#VBP           1    
		confidence#NN        1    
		confirm#VBP          1    
		confirmatory#JJ      1    
		conflicting#JJ       1    
		continue#VB          1    
		contours#NNS         1    
		contraindications#NNS 1    
		contribute#VBP       1    
		controlled#JJ        1    
		controversies#NNS    1    
		controversy#NN       1    
		cores#NNS            1    
		correlation#NN       1    
		course#NN            1    
		create#VB            1    
		cryotherapy#NN       1    
		curable#JJ           1    
		curve#NN             1    
		damage#NN            1    
		date#NN              1    
		death#NN             1    
		deaths#NNS           1    
		debate#NN            1    
		debate#VB            1    
		decide#VBP           1    
		decision#NN          1    
		decisions#NNS        1    
		declare#VB           1    
		decrease#NN          1    
		decrease#VB          1    
		defer#VB             1    
		definitive#JJ        1    
		degree#NN            1    
		delay#NN             1    
		delay#VBP            1    
		delineation#NN       1    
		dense#JJ             1    
		depth#NN             1    
		determination#NN     1    
		diabetes#NN          1    
		diagnosis#NN         1    
		diagnostic#JJ        1    
		diffusion#NN         1    
		diffusivity#NN       1    
		digital#JJ           1    
		disagreement#NN      1    
		disappointing#JJ     1    
		discomfort#NN        1    
		discontinuation#NN   1    
		discussions#NNS      1    
		disease#NN           1    
		diseases#NNS         1    
		distal#JJ            1    
		distant#JJ           1    
		distinct#JJ          1    
		distorted#JJ         1    
		dose#NN              1    
		duration#NN          1    
		early#JJ             1    
		early#RB             1    
		education#NN         1    
		effects#NNS          1    
		efficacy#NN          1    
		electroporation#NN   1    
		elevated#JJ          1    
		eligible#JJ          1    
		eliminate#VB         1    
		embark#VBP           1    
		emphasis#NN          1    
		enable#VBP           1    
		encouraging#JJ       1    
		enhancement#NN       1    
		enough#RB            1    
		equivocal#JJ         1    
		erectile#JJ          1    
		establish#VBP        1    
		evasive#JJ           1    
		evidence#NN          1    
		evolve#VB            1    
		examination#NN       1    
		examine#VBP          1    
		excision#NN          1    
		expectancy#NN        1    
		experience#NN        1    
		experts#NNS          1    
		explain#VBP          1    
		explanation#NN       1    
		express#VBP          1    
		extent#NN            1    
		facile#JJ            1    
		fall#VBP             1    
		family#NN            1    
		favorable#JJ         1    
		features#NNS         1    
		findings#NNS         1    
		focal#JJ             1    
		follow#VB            1    
		follow#VBP           1    
		fossa#NN             1    
		found#VBD            1    
		fraction#NN          1    
		functional#JJ        1    
		fuse#NN              1    
		gadolinium#NN        1    
		gantry#NN            1    
		generous#JJ          1    
		genetic#JJ           1    
		glandular#JJ         1    
		grade#NN             1    
		granulation#NN       1    
		group#NN             1    
		guidance#NN          1    
		guide#NN             1    
		guide#VB             1    
		guidelines#NNS       1    
		hands#NNS            1    
		harbor#VBP           1    
		hazard#NN            1    
		healing#NN           1    
		health#NN            1    
		heart#NN             1    
		help#NN              1    
		help#VB              1    
		helpful#JJ           1    
		hemorrhage#NN        1    
		hereditary#JJ        1    
		histopathology#NN    1    
		homogeneous#JJ       1    
		hopefully#RB         1    
		hotspot#NN           1    
		hyperplasia#NN       1    
		hypertension#NN      1    
		identification#NN    1    
		imaging#NN           1    
		impact#NN            1    
		imperfect#JJ         1    
		inappropriately#RB   1    
		index#NN             1    
		indicate#VBP         1    
		individual#NN        1    
		indolent#JJ          1    
		instance#NN          1    
		institution#NN       1    
		institutions#NNS     1    
		intellectual#JJ      1    
		intensity#NN         1    
		intensive#JJ         1    
		international#JJ     1    
		interval#NN          1    
		intravenous#JJ       1    
		invasion#NN          1    
		invasive#JJ          1    
		invasiveness#NN      1    
		invisible#JJ         1    
		involved#JJ          1    
		involvement#NN       1    
		irreversible#JJ      1    
		kinetics#NNS         1    
		landscape#NN         1    
		laser#NN             1    
		later#JJ             1    
		later#RB             1    
		laterality#NN        1    
		lesion#NN            1    
		lesions#NNS          1    
		lethal#JJ            1    
		life#NN              1    
		list#NN              1    
		little#JJ            1    
		located#JJ           1    
		long#RB              1    
		longevity#NN         1    
		lymph#NN             1    
		machine#NN           1    
		magnet#NN            1    
		magnetic#JJ          1    
		majority#NN          1    
		make#VB              1    
		malignancy#NN        1    
		management#NN        1    
		mandatory#JJ         1    
		margin#NN            1    
		marker#NN            1    
		meaningful#JJ        1    
		meanwhile#RB         1    
		measures#NNS         1    
		meta#NN              1    
		metallic#JJ          1    
		metastatic#JJ        1    
		microscopic#JJ       1    
		midline#NN           1    
		modalities#NNS       1    
		moderate#JJ          1    
		modifications#NNS    1    
		monitor#NN           1    
		monitor#VB           1    
		monitoring#NN        1    
		need#MD              1    
		needle#NN            1    
		needles#NNS          1    
		nerve#NN             1    
		nests#NNS            1    
		never#RB             1    
		nonmagnetic#JJ       1    
		nonspecific#JJ       1    
		normal#JJ            1    
		obscure#JJ           1    
		older#JJR            1    
		once#IN              1    
		oncologists#NNS      1    
		ongoing#JJ           1    
		online#NN            1    
		only#JJ              1    
		onset#NN             1    
		operator#NN          1    
		operators#NNS        1    
		opposite#JJ          1    
		outcome#NN           1    
		outer#JJ             1    
		overall#JJ           1    
		overdiagnosis#NN     1    
		overlap#VBP          1    
		oversample#NN        1    
		overtreatment#NN     1    
		packed#JJ            1    
		paradigms#NNS        1    
		paradox#NN           1    
		parenchyma#NN        1    
		partial#JJ           1    
		partnership#NN       1    
		patent#NN            1    
		pathologic#JJ        1    
		pathology#NN         1    
		patient#JJ           1    
		penda#NN             1    
		periods#NNS          1    
		peripheral#JJ        1    
		permit#VBP           1    
		personalized#JJ      1    
		physicians#NNS       1    
		pinto#NNP            1    
		planning#NN          1    
		plans#NNS            1    
		play#VB              1    
		population#NN        1    
		populations#NNS      1    
		portend#VBP          1    
		possible#RB          1    
		postoperative#JJ     1    
		precision#NN         1    
		preclude#VB          1    
		predictor#NN         1    
		predominant#JJ       1    
		premium#NN           1    
		preparation#NN       1    
		presentation#NN      1    
		private#JJ           1    
		probably#RB          1    
		professional#JJ      1    
		prognosis#NN         1    
		progress#VB          1    
		progressive#JJ       1    
		promise#NN           1    
		prone#JJ             1    
		prostate#NN          1    
		prostatectomy#NN     1    
		prostates#NNS        1    
		prostatic#JJ         1    
		prostatitis#NN       1    
		protocol#NN          1    
		protocols#NNS        1    
		protracted#JJ        1    
		public#JJ            1    
		pulse#NN             1    
		quality#NN           1    
		question#NN          1    
		race#NN              1    
		radical#JJ           1    
		rapid#JJ             1    
		ratios#NNS           1    
		reach#VBP            1    
		realm#NN             1    
		reasonable#JJ        1    
		recommendation#NN    1    
		rectal#JJ            1    
		recur#VB             1    
		recurrence#NN        1    
		recurrent#JJ         1    
		regard#NN            1    
		register#VBP         1    
		report#NN            1    
		reporting#NN         1    
		requirements#NNS     1    
		residual#JJ          1    
		resolution#NN        1    
		resonance#NN         1    
		restriction#NN       1    
		result#VB            1    
		risk#NN              1    
		risk#VB              1    
		risk#VBP             1    
		role#NN              1    
		routine#JJ           1    
		rules#NNS            1    
		safely#RB            1    
		salvage#NN           1    
		satisfactory#JJ      1    
		scan#VB              1    
		scanner#NN           1    
		scanners#NNS         1    
		scans#NNS            1    
		scar#NN              1    
		score#NN             1    
		score#VBP            1    
		scores#NNS           1    
		screening#NN         1    
		select#JJ            1    
		seminal#JJ           1    
		sensitivity#NN       1    
		sepsis#NN            1    
		sequences#NNS        1    
		serum#NN             1    
		serve#VB             1    
		signal#JJ            1    
		site#NN              1    
		socioeconomic#JJ     1    
		software#NN          1    
		sparse#JJ            1    
		specificity#NN       1    
		specimens#NNS        1    
		spectrum#NN          1    
		staging#NN           1    
		stand#VBP            1    
		standardized#JJ      1    
		standing#NN          1    
		stratification#NN    1    
		stroke#NN            1    
		stroma#NN            1    
		strong#JJ            1    
		subsequent#JJ        1    
		substantial#JJ       1    
		substitute#VBP       1    
		success#NN           1    
		suggest#VB           1    
		suggest#VBP          1    
		suggestive#JJ        1    
		suite#NN             1    
		superior#JJ          1    
		support#NN           1    
		suppression#NN       1    
		surgery#NN           1    
		surgical#JJ          1    
		surprise#NN          1    
		surprising#JJ        1    
		surrogate#JJ         1    
		surveillance#NN      1    
		survival#NN          1    
		suspicion#NN         1    
		suspicious#JJ        1    
		symptoms#NNS         1    
		syndrome#NN          1    
		systematic#JJ        1    
		tables#NNS           1    
		tailor#VBP           1    
		teach#VB             1    
		technologies#NNS     1    
		template#NN          1    
		temporal#JJ          1    
		texture#NN           1    
		therapeutic#JJ       1    
		therapy#NN           1    
		thereby#RB           1    
		thermometry#NN       1    
		thorough#JJ          1    
		tightly#RB           1    
		tissue#NN            1    
		tomography#NN        1    
		tool#NN              1    
		track#NN             1    
		traditionally#RB     1    
		training#NN          1    
		transition#NN        1    
		treat#VBP            1    
		treated#JJ           1    
		treatment#NN         1    
		trial#NN             1    
		truly#RB             1    
		tumor#NN             1    
		tumors#NNS           1    
		ultrasound#NN        1    
		uncomfortable#JJ     1    
		uncommon#JJ          1    
		undergo#VB           1    
		undergo#VBP          1    
		undetectable#JJ      1    
		unguided#JJ          1    
		upgrading#NN         1    
		urethra#NN           1    
		utility#NN           1    
		validation#NN        1    
		valuable#JJ          1    
		versus#CC            1    
		vesicle#NN           1    
		volume#NN            1    
		washout#NN           1    
		weeks#NNS            1    
		widespread#JJ        1    
		wives#NNS            1    
		wood#NN              1    
		worse#JJR            1    
		years#NNS            1    
		young#JJ             1    
		younger#JJR          1    
