Name; [Md] model terms; [Md] model types;[Res] unknown words; [Res] known Mu; [Res] known Mc
Amir K. Khandani;1.747;491;30;371;90;
Amir K. Khandani;1.114;550;47;272;231;
Amir K. Khandani;5.186;1.005;86;664;255;
Amir K. Khandani;1.174;324;27;252;45;
Amir K. Khandani;2.274;505;29;396;80;
Amir K. Khandani;1.455;471;34;327;110;
Amir K. Khandani;890;284;32;177;75;
Amir K. Khandani;2.397;709;40;512;157;
Amir K. Khandani;817;321;37;212;72;
Amir K. Khandani;1.014;435;34;316;85;
Amir K. Khandani;1.160;349;28;236;85;
Amir K. Khandani;1.426;514;57;320;137;
Amir K. Khandani;686;274;26;210;38;
Amir K. Khandani;1.801;433;27;325;81;
Amir K. Khandani;1.407;642;49;342;251;
Amir K. Khandani;13.247;1.463;200;774;489;
Amir K. Khandani;3.714;852;48;674;130;
Amir K. Khandani;1.254;484;60;287;137;
Amir K. Khandani;1.862;669;41;497;131;
Amir K. Khandani;1.060;438;26;363;49;
Amir K. Khandani;4.936;1.201;97;799;305;
Amir K. Khandani;9.114;1.705;182;941;582;
Amir K. Khandani;1.043;349;30;247;72;
Amir K. Khandani;1.868;685;61;425;199;
Amir K. Khandani;2.341;771;59;484;228;
Amir K. Khandani;7.786;1.288;113;919;256;
Amir K. Khandani;1.872;557;33;404;120;
Amir K. Khandani;3.069;1.010;69;640;301;
Amir K. Khandani;4.537;985;79;636;270;
Amir K. Khandani;1.677;488;66;316;106;
Amir K. Khandani;1.750;428;40;304;84;
Amir K. Khandani;1.263;500;20;404;76;
Amir K. Khandani;2.023;908;103;463;342;
Amir K. Khandani;4.040;1.093;120;647;326;
Amir K. Khandani;3.688;985;103;642;240;
Amir K. Khandani;1.394;361;31;253;77;
Amir K. Khandani;4.136;740;56;541;143;
Amir K. Khandani;1.122;390;25;295;70;
Amir K. Khandani;2.805;936;99;400;437;
Amir K. Khandani;1.564;375;31;288;56;
Amir K. Khandani;3.124;730;51;518;161;
Amir K. Khandani;1.726;470;33;361;76;
Amir K. Khandani;3.236;1.256;130;750;376;
Amir K. Khandani;4.054;935;100;631;204;
Amir K. Khandani;4.783;1.327;200;720;407;
Amir K. Khandani;1.863;640;56;338;246;
Amir K. Khandani;4.384;1.064;126;550;388;
Amir K. Khandani;976;395;15;329;51;
Amir K. Khandani;6.518;1.551;140;963;448;
Amir K. Khandani;1.686;473;56;316;101;
Amir K. Khandani;2.421;845;77;564;204;
Amir K. Khandani;837;345;24;251;70;
Amir K. Khandani;601;295;22;176;97;
Amir K. Khandani;1.139;473;24;389;60;
Amir K. Khandani;3.970;977;90;629;258;
Amir K. Khandani;3.049;768;45;470;253;
Amir K. Khandani;1.581;481;40;330;111;
Amir K. Khandani;1.459;527;55;359;113;
Amir K. Khandani;5.591;1.061;79;807;175;
Amir K. Khandani;2.970;850;53;556;241;
Amir K. Khandani;1.738;675;52;442;181;
Amir K. Khandani;1.943;530;25;419;86;
Amir K. Khandani;960;408;41;262;105;
Amir K. Khandani;2.972;710;75;503;132;
Amir K. Khandani;2.308;640;67;431;142;
Amir K. Khandani;870;374;34;268;72;
Amir K. Khandani;4.296;1.130;115;673;342;
Amir K. Khandani;1.481;593;42;388;163;
Amir K. Khandani;1.411;466;31;354;81;
Amir K. Khandani;1.467;508;50;358;100;
Amir K. Khandani;1.455;595;30;349;216;
Amir K. Khandani;3.317;863;85;501;277;
Amir K. Khandani;3.476;880;89;527;264;
Amir K. Khandani;1.339;447;35;327;85;
Amir K. Khandani;1.533;695;55;374;266;
Amir K. Khandani;3.141;842;64;586;192;
Amir K. Khandani;2.477;759;60;532;167;
Amir K. Khandani;2.822;826;84;478;264;
Amir K. Khandani;7.264;1.341;132;936;273;
Amir K. Khandani;3.802;798;62;551;185;
Amir K. Khandani;2.216;834;69;527;238;
Amir K. Khandani;1.766;512;35;361;116;
Amir K. Khandani;487;263;33;170;60;
Amir K. Khandani;1.486;444;34;297;113;
Amir K. Khandani;1.771;578;34;431;113;
Amir K. Khandani;2.626;682;46;516;120;
Amir K. Khandani;4.696;1.099;82;755;262;
Amir K. Khandani;1.165;344;33;262;49;
Amir K. Khandani;2.938;1.060;100;559;401;
Amir K. Khandani;2.854;838;100;492;246;
Amir K. Khandani;2.469;671;69;456;146;
Amir K. Khandani;1.002;379;34;293;52;
Amir K. Khandani;1.201;394;29;303;62;
Amir K. Khandani;1.243;431;50;293;88;
Amir K. Khandani;1.833;522;48;339;135;
Amir K. Khandani;2.672;742;29;559;154;
Amir K. Khandani;1.933;562;48;379;135;
Amir K. Khandani;3.134;612;45;419;148;
Amir K. Khandani;1.196;598;62;295;241;
Amir K. Khandani;3.664;970;77;651;242;
Amir K. Khandani;1.467;586;25;468;93;
Amir K. Khandani;965;313;25;228;60;
Amir K. Khandani;2.806;638;30;503;105;
Amir K. Khandani;2.146;550;37;411;102;
Amir K. Khandani;911;388;109;116;163;
Amir K. Khandani;2.413;538;38;406;94;
Amir K. Khandani;4.643;949;97;601;251;
Amir K. Khandani;1.068;407;43;259;105;
Amir K. Khandani;2.066;620;49;441;130;
Amir K. Khandani;1.510;474;22;382;70;
Amir K. Khandani;5.229;1.363;191;737;435;
Amir K. Khandani;606;301;40;201;60;
Amir K. Khandani;2.794;1.056;110;599;347;
Amir K. Khandani;3.988;951;93;613;245;
Amir K. Khandani;1.704;438;44;285;109;
Amir K. Khandani;4.445;1.057;134;636;287;
Amir K. Khandani;2.196;686;47;525;114;
Amir K. Khandani;5.057;851;77;611;163;
Amir K. Khandani;4.260;1.164;94;717;353;
Amir K. Khandani;1.615;598;48;412;138;
Amir K. Khandani;319;181;10;106;65;
Amir K. Khandani;3.041;858;68;639;151;
Amir K. Khandani;3.690;766;62;565;139;
Amir K. Khandani;2.763;787;89;456;242;
Amir K. Khandani;4.225;1.029;126;622;281;
Amir K. Khandani;2.352;872;80;504;288;
Amir K. Khandani;1.888;538;35;434;69;
Amir K. Khandani;1.562;545;35;402;108;
Amir K. Khandani;4.303;827;50;565;212;
Amir K. Khandani;3.648;975;96;616;263;
Amir K. Khandani;6.235;1.396;198;722;476;
Amir K. Khandani;4.021;808;30;696;82;
Amir K. Khandani;4.603;871;70;591;210;
Amir K. Khandani;1.642;698;56;421;221;
Amir K. Khandani;1.020;302;12;219;71;
Amir K. Khandani;2.647;619;43;439;137;
Amir K. Khandani;1.354;550;36;366;148;
Amir K. Khandani;1.548;529;39;356;134;
Amir K. Khandani;1.581;623;45;458;120;
Amir K. Khandani;4.946;1.077;74;806;197;
Amir K. Khandani;1.279;439;31;319;89;
Amir K. Khandani;1.755;646;70;471;105;
Amir K. Khandani;2.113;712;63;444;205;
Amir K. Khandani;3.327;622;43;435;144;
Amir K. Khandani;968;397;34;289;74;
Amir K. Khandani;1.794;599;38;442;119;
Amir K. Khandani;1.055;504;46;290;168;
Amir K. Khandani;1.271;351;18;289;44;
Amir K. Khandani;2.342;503;35;378;90;
Amir K. Khandani;1.531;541;29;429;83;
Amir K. Khandani;2.226;516;29;400;87;
Amir K. Khandani;1.952;461;42;335;84;
Amir K. Khandani;2.171;671;42;456;173;
Amir K. Khandani;1.574;550;40;402;108;
Amir K. Khandani;3.782;1.030;91;619;320;
Amir K. Khandani;1.832;541;55;345;141;
Amir K. Khandani;5.592;1.477;189;714;574;
Amir K. Khandani;2.985;1.017;110;552;355;
Amir K. Khandani;1.808;588;37;409;142;
Amir K. Khandani;5.788;1.353;169;729;455;
Amir K. Khandani;1.111;397;15;331;51;
Amir K. Khandani;1.779;424;36;269;119;
Amir K. Khandani;2.778;897;78;516;303;
Amir K. Khandani;3.067;858;93;532;233;
Amir K. Khandani;5.423;1.151;90;721;340;
Amir K. Khandani;10.917;1.664;167;879;618;
Amir K. Khandani;3.955;967;78;679;210;
Amir K. Khandani;2.652;723;39;540;144;
Amir K. Khandani;1.431;476;23;328;125;
Amir K. Khandani;4.718;806;62;597;147;
Amir K. Khandani;3.485;850;48;569;233;
Amir K. Khandani;8.130;1.103;99;732;272;
Amir K. Khandani;1.342;256;29;186;41;
Amir K. Khandani;2.947;713;52;515;146;
Amir K. Khandani;5.253;1.209;150;711;348;
Amir K. Khandani;1.412;442;35;347;60;
Amir K. Khandani;1.961;699;56;416;227;
Amir K. Khandani;1.058;370;18;271;81;
Amir K. Khandani;1.337;518;26;411;81;
Amir K. Khandani;2.314;514;21;423;70;
Amir K. Khandani;1.862;653;31;504;118;
Amir K. Khandani;3.838;990;73;673;244;
Amir K. Khandani;3.792;953;71;654;228;
Amir K. Khandani;1.735;592;63;374;155;
Amir K. Khandani;3.731;878;60;613;205;
Amir K. Khandani;2.743;746;45;529;172;
Amir K. Khandani;1.463;455;27;334;94;
Amir K. Khandani;1.627;428;42;318;68;
Amir K. Khandani;2.174;774;56;562;156;
Amir K. Khandani;1.570;422;15;318;89;
Amir K. Khandani;2.482;626;44;465;117;
Amir K. Khandani;1.809;754;80;402;272;
Amir K. Khandani;772;345;38;242;65;
Amir K. Khandani;7.175;1.389;115;893;381;
Amir K. Khandani;3.635;829;38;648;143;
Amir K. Khandani;1.485;562;34;433;95;
Amir K. Khandani;1.914;513;54;360;99;
Amir K. Khandani;1.727;597;39;468;90;
Amir K. Khandani;3.251;950;59;618;273;
Amir K. Khandani;2.912;863;97;550;216;
Amir K. Khandani;1.846;659;69;356;234;
Amir K. Khandani;1.484;370;15;302;53;
Amir K. Khandani;977;339;24;218;97;
Amir K. Khandani;3.083;1.210;112;659;439;
Amir K. Khandani;1.390;520;48;331;141;
Amir K. Khandani;1.329;555;58;287;210;
Amir K. Khandani;3.674;1.087;80;698;309;
Amir K. Khandani;1.785;473;36;331;106;
Amir K. Khandani;2.040;643;37;432;174;
Amir K. Khandani;1.277;518;50;334;134;
Amir K. Khandani;4.261;1.163;122;698;343;
Amir K. Khandani;4.297;912;69;636;207;
Amir K. Khandani;1.334;448;39;299;110;
Amir K. Khandani;2.244;749;53;506;190;
Amir K. Khandani;1.435;461;19;393;49;
Amir K. Khandani;1.962;563;60;392;111;
Amir K. Khandani;535;247;28;176;43;
Amir K. Khandani;1.373;588;37;443;108;
Amir K. Khandani;5.011;1.049;71;803;175;
Amir K. Khandani;1.882;617;62;416;139;
Amir K. Khandani;1.239;451;33;331;87;
Amir K. Khandani;1.291;457;55;286;116;
Amir K. Khandani;584;250;26;170;54;
Amir K. Khandani;2.036;785;69;428;288;
Amir K. Khandani;1.969;478;27;360;91;
Andrea Montanari;1.747;491;29;422;40;
Andrea Montanari;1.114;550;42;344;164;
Andrea Montanari;5.186;1.005;78;739;188;
Andrea Montanari;1.174;324;25;272;27;
Andrea Montanari;2.274;505;14;457;34;
Andrea Montanari;1.455;471;24;372;75;
Andrea Montanari;890;284;27;198;59;
Andrea Montanari;2.397;709;30;574;105;
Andrea Montanari;817;321;30;243;48;
Andrea Montanari;4.230;703;35;611;57;
Andrea Montanari;1.014;435;26;365;44;
Andrea Montanari;1.160;349;26;247;76;
Andrea Montanari;1.426;514;42;374;98;
Andrea Montanari;686;274;29;223;22;
Andrea Montanari;1.801;433;15;374;44;
Andrea Montanari;1.407;642;48;418;176;
Andrea Montanari;13.247;1.463;171;939;353;
Andrea Montanari;1.254;484;57;329;98;
Andrea Montanari;1.420;426;18;377;31;
Andrea Montanari;4.936;1.201;85;907;209;
Andrea Montanari;9.114;1.705;157;1.188;360;
Andrea Montanari;1.043;349;26;275;48;
Andrea Montanari;1.868;685;48;493;144;
Andrea Montanari;2.341;771;47;572;152;
Andrea Montanari;7.786;1.288;101;1.021;166;
Andrea Montanari;1.872;557;27;439;91;
Andrea Montanari;3.069;1.010;60;736;214;
Andrea Montanari;4.537;985;58;752;175;
Andrea Montanari;3.219;706;41;585;80;
Andrea Montanari;1.677;488;59;341;88;
Andrea Montanari;1.750;428;32;325;71;
Andrea Montanari;2.023;908;94;578;236;
Andrea Montanari;4.040;1.093;101;758;234;
Andrea Montanari;3.688;985;91;723;171;
Andrea Montanari;3.211;809;39;692;78;
Andrea Montanari;1.394;361;22;286;53;
Andrea Montanari;4.136;740;41;627;72;
Andrea Montanari;3.513;692;39;600;53;
Andrea Montanari;1.122;390;16;343;31;
Andrea Montanari;2.805;936;96;490;350;
Andrea Montanari;1.564;375;31;306;38;
Andrea Montanari;3.124;730;30;604;96;
Andrea Montanari;1.726;470;31;391;48;
Andrea Montanari;4.054;935;86;716;133;
Andrea Montanari;4.783;1.327;180;889;258;
Andrea Montanari;1.863;640;49;413;178;
Andrea Montanari;4.384;1.064;111;662;291;
Andrea Montanari;2.726;561;27;488;46;
Andrea Montanari;1.686;473;48;340;85;
Andrea Montanari;2.421;845;60;667;118;
Andrea Montanari;837;345;17;271;57;
Andrea Montanari;601;295;20;216;59;
Andrea Montanari;3.970;977;70;750;157;
Andrea Montanari;3.049;768;42;555;171;
Andrea Montanari;1.581;481;32;369;80;
Andrea Montanari;1.459;527;51;391;85;
Andrea Montanari;5.591;1.061;71;880;110;
Andrea Montanari;2.970;850;45;647;158;
Andrea Montanari;1.738;675;43;509;123;
Andrea Montanari;1.943;530;17;477;36;
Andrea Montanari;960;408;34;287;87;
Andrea Montanari;2.972;710;67;550;93;
Andrea Montanari;2.308;640;44;504;92;
Andrea Montanari;870;374;34;291;49;
Andrea Montanari;4.296;1.130;105;797;228;
Andrea Montanari;1.481;593;34;449;110;
Andrea Montanari;1.411;466;25;394;47;
Andrea Montanari;1.765;457;29;392;36;
Andrea Montanari;1.467;508;50;391;67;
Andrea Montanari;1.455;595;27;420;148;
Andrea Montanari;3.317;863;79;602;182;
Andrea Montanari;3.476;880;77;651;152;
Andrea Montanari;1.339;447;35;350;62;
Andrea Montanari;1.533;695;47;465;183;
Andrea Montanari;3.141;842;40;674;128;
Andrea Montanari;2.477;759;39;608;112;
Andrea Montanari;2.822;826;72;590;164;
Andrea Montanari;3.802;798;57;621;120;
Andrea Montanari;1.766;512;33;393;86;
Andrea Montanari;487;263;31;195;37;
Andrea Montanari;1.486;444;29;341;74;
Andrea Montanari;1.771;578;25;500;53;
Andrea Montanari;1.715;488;18;409;61;
Andrea Montanari;2.626;682;34;576;72;
Andrea Montanari;4.696;1.099;68;849;182;
Andrea Montanari;1.165;344;28;270;46;
Andrea Montanari;2.938;1.060;90;692;278;
Andrea Montanari;2.854;838;74;599;165;
Andrea Montanari;2.469;671;49;531;91;
Andrea Montanari;1.002;379;30;315;34;
Andrea Montanari;1.201;394;27;324;43;
Andrea Montanari;1.243;431;49;317;65;
Andrea Montanari;1.833;522;42;361;119;
Andrea Montanari;1.933;562;44;397;121;
Andrea Montanari;3.134;612;30;481;101;
Andrea Montanari;976;286;12;248;26;
Andrea Montanari;1.196;598;58;353;187;
Andrea Montanari;2.860;664;14;588;62;
Andrea Montanari;1.268;380;11;347;22;
Andrea Montanari;965;313;23;242;48;
Andrea Montanari;2.146;550;26;465;59;
Andrea Montanari;911;388;108;146;134;
Andrea Montanari;2.413;538;25;480;33;
Andrea Montanari;4.643;949;78;690;181;
Andrea Montanari;1.068;407;35;306;66;
Andrea Montanari;2.066;620;35;515;70;
Andrea Montanari;1.510;474;17;419;38;
Andrea Montanari;2.824;595;15;510;70;
Andrea Montanari;5.229;1.363;171;898;294;
Andrea Montanari;606;301;34;234;33;
Andrea Montanari;2.794;1.056;102;720;234;
Andrea Montanari;3.988;951;84;688;179;
Andrea Montanari;1.704;438;39;312;87;
Andrea Montanari;4.445;1.057;119;763;175;
Andrea Montanari;2.196;686;36;584;66;
Andrea Montanari;5.057;851;57;713;81;
Andrea Montanari;4.260;1.164;82;851;231;
Andrea Montanari;1.615;598;41;464;93;
Andrea Montanari;319;181;9;123;49;
Andrea Montanari;3.448;851;41;719;91;
Andrea Montanari;745;285;11;240;34;
Andrea Montanari;3.041;858;49;735;74;
Andrea Montanari;1.586;470;29;393;48;
Andrea Montanari;3.690;766;52;645;69;
Andrea Montanari;2.763;787;80;547;160;
Andrea Montanari;4.225;1.029;112;731;186;
Andrea Montanari;2.352;872;72;604;196;
Andrea Montanari;1.562;545;29;450;66;
Andrea Montanari;4.303;827;40;667;120;
Andrea Montanari;3.648;975;78;738;159;
Andrea Montanari;6.235;1.396;173;919;304;
Andrea Montanari;4.021;808;35;694;79;
Andrea Montanari;4.603;871;53;673;145;
Andrea Montanari;1.642;698;46;512;140;
Andrea Montanari;1.020;302;10;233;59;
Andrea Montanari;2.647;619;33;519;67;
Andrea Montanari;1.354;550;35;412;103;
Andrea Montanari;1.548;529;37;408;84;
Andrea Montanari;1.581;623;33;530;60;
Andrea Montanari;1.279;439;35;352;52;
Andrea Montanari;1.755;646;59;514;73;
Andrea Montanari;2.113;712;51;520;141;
Andrea Montanari;3.327;622;27;513;82;
Andrea Montanari;968;397;34;310;53;
Andrea Montanari;3.144;628;35;515;78;
Andrea Montanari;1.794;599;28;469;102;
Andrea Montanari;1.055;504;34;357;113;
Andrea Montanari;1.271;351;9;321;21;
Andrea Montanari;2.342;503;20;434;49;
Andrea Montanari;2.226;516;22;439;55;
Andrea Montanari;1.952;461;35;373;53;
Andrea Montanari;2.171;671;33;515;123;
Andrea Montanari;1.574;550;25;467;58;
Andrea Montanari;3.782;1.030;75;755;200;
Andrea Montanari;1.832;541;45;397;99;
Andrea Montanari;5.592;1.477;181;888;408;
Andrea Montanari;2.985;1.017;97;701;219;
Andrea Montanari;1.808;588;29;467;92;
Andrea Montanari;5.788;1.353;153;891;309;
Andrea Montanari;1.111;397;11;360;26;
Andrea Montanari;1.779;424;32;287;105;
Andrea Montanari;2.778;897;62;635;200;
Andrea Montanari;1.131;339;18;296;25;
Andrea Montanari;3.067;858;85;592;181;
Andrea Montanari;5.423;1.151;76;827;248;
Andrea Montanari;10.917;1.664;152;1.076;436;
Andrea Montanari;2.652;723;25;630;68;
Andrea Montanari;1.431;476;19;395;62;
Andrea Montanari;4.718;806;42;691;73;
Andrea Montanari;2.760;621;28;532;61;
Andrea Montanari;3.485;850;44;675;131;
Andrea Montanari;8.130;1.103;76;860;167;
Andrea Montanari;1.342;256;28;193;35;
Andrea Montanari;2.947;713;41;570;102;
Andrea Montanari;5.253;1.209;128;860;221;
Andrea Montanari;1.412;442;21;389;32;
Andrea Montanari;2.678;656;45;529;82;
Andrea Montanari;1.961;699;46;511;142;
Andrea Montanari;1.058;370;15;309;46;
Andrea Montanari;1.337;518;30;428;60;
Andrea Montanari;2.314;514;8;472;34;
Andrea Montanari;3.838;990;62;776;152;
Andrea Montanari;2.457;586;18;525;43;
Andrea Montanari;3.792;953;56;749;148;
Andrea Montanari;1.735;592;56;424;112;
Andrea Montanari;3.731;878;51;711;116;
Andrea Montanari;2.743;746;35;612;99;
Andrea Montanari;1.463;455;27;376;52;
Andrea Montanari;1.627;428;36;345;47;
Andrea Montanari;2.533;583;32;492;59;
Andrea Montanari;1.570;422;11;345;66;
Andrea Montanari;2.482;626;31;534;61;
Andrea Montanari;940;303;16;266;21;
Andrea Montanari;1.809;754;67;482;205;
Andrea Montanari;772;345;27;282;36;
Andrea Montanari;1.914;513;40;425;48;
Andrea Montanari;3.251;950;43;732;175;
Andrea Montanari;2.912;863;79;655;129;
Andrea Montanari;1.846;659;70;411;178;
Andrea Montanari;1.484;370;10;335;25;
Andrea Montanari;977;339;21;249;69;
Andrea Montanari;2.037;532;30;449;53;
Andrea Montanari;3.083;1.210;96;833;281;
Andrea Montanari;1.390;520;34;405;81;
Andrea Montanari;1.329;555;53;337;165;
Andrea Montanari;3.674;1.087;59;833;195;
Andrea Montanari;1.785;473;29;373;71;
Andrea Montanari;2.386;644;24;547;73;
Andrea Montanari;2.040;643;27;528;88;
Andrea Montanari;1.277;518;42;387;89;
Andrea Montanari;4.261;1.163;111;799;253;
Andrea Montanari;4.297;912;63;712;137;
Andrea Montanari;1.334;448;33;325;90;
Andrea Montanari;2.244;749;41;591;117;
Andrea Montanari;1.435;461;14;423;24;
Andrea Montanari;1.962;563;46;456;61;
Andrea Montanari;535;247;26;196;25;
Andrea Montanari;5.011;1.049;55;897;97;
Andrea Montanari;6.247;680;35;561;84;
Andrea Montanari;1.882;617;61;442;114;
Andrea Montanari;1.239;451;32;360;59;
