Name; [Md] model terms; [Md] model types;[Res] unknown words; [Res] known Mu; [Res] known Mc
Amir K. Khandani;2.252;717;158;276;283;
Amir K. Khandani;1.929;665;152;279;234;
Amir K. Khandani;1.770;638;123;263;252;
Amir K. Khandani;2.911;772;162;373;237;
Amir K. Khandani;2.920;984;228;409;347;
Amir K. Khandani;2.503;660;164;286;210;
Amir K. Khandani;1.900;655;162;278;215;
Amir K. Khandani;1.895;562;72;303;187;
Amir K. Khandani;2.975;738;176;334;228;
Amir K. Khandani;2.339;789;126;342;321;
Amir K. Khandani;4.125;1.022;203;494;325;
Amir K. Khandani;2.055;760;154;296;310;
Amir K. Khandani;2.444;713;151;347;215;
Amir K. Khandani;2.538;864;144;426;294;
Amir K. Khandani;2.699;727;111;288;328;
Amir K. Khandani;2.265;676;156;295;225;
Amir K. Khandani;3.617;939;229;364;346;
Amir K. Khandani;3.439;1.115;160;556;399;
Andrea Montanari;2.252;717;158;347;212;
Andrea Montanari;1.929;665;148;343;174;
Andrea Montanari;1.770;638;116;328;194;
Andrea Montanari;2.911;772;153;460;159;
Andrea Montanari;2.920;984;216;525;243;
Andrea Montanari;2.503;660;157;350;153;
Andrea Montanari;1.900;655;153;343;159;
Andrea Montanari;1.895;562;70;364;128;
Andrea Montanari;2.975;738;163;419;156;
Andrea Montanari;2.339;789;125;428;236;
Andrea Montanari;4.125;1.022;191;621;210;
Andrea Montanari;2.055;760;147;397;216;
Andrea Montanari;2.444;713;139;433;141;
Andrea Montanari;2.538;864;137;542;185;
Andrea Montanari;2.699;727;104;382;241;
Andrea Montanari;2.265;676;149;382;145;
Andrea Montanari;3.617;939;222;470;247;
Andrea Montanari;3.439;1.115;150;674;291;
Bertrand Meyer;2.252;717;153;380;184;
Bertrand Meyer;1.929;665;143;360;162;
Bertrand Meyer;1.770;638;114;349;175;
Bertrand Meyer;2.911;772;147;490;135;
Bertrand Meyer;2.920;984;205;557;222;
Bertrand Meyer;2.503;660;156;367;137;
Bertrand Meyer;1.900;655;149;353;153;
Bertrand Meyer;1.895;562;69;390;103;
Bertrand Meyer;2.975;738;159;435;144;
Bertrand Meyer;2.339;789;122;465;202;
Bertrand Meyer;4.125;1.022;182;658;182;
Bertrand Meyer;2.055;760;142;389;229;
Bertrand Meyer;2.444;713;137;432;144;
Bertrand Meyer;2.538;864;129;542;193;
Bertrand Meyer;2.699;727;100;402;225;
Bertrand Meyer;2.265;676;145;393;138;
Bertrand Meyer;3.617;939;215;505;219;
Bertrand Meyer;3.439;1.115;144;716;255;
Chin-Chen Chang;2.252;717;181;275;261;
Chin-Chen Chang;1.929;665;167;278;220;
Chin-Chen Chang;1.770;638;140;266;232;
Chin-Chen Chang;2.911;772;180;387;205;
Chin-Chen Chang;2.920;984;256;418;310;
Chin-Chen Chang;2.503;660;192;278;190;
Chin-Chen Chang;1.900;655;190;266;199;
Chin-Chen Chang;1.895;562;93;309;160;
Chin-Chen Chang;2.975;738;200;335;203;
Chin-Chen Chang;2.339;789;151;343;295;
Chin-Chen Chang;4.125;1.022;231;480;311;
Chin-Chen Chang;2.055;760;173;314;273;
Chin-Chen Chang;2.444;713;173;343;197;
Chin-Chen Chang;2.538;864;176;413;275;
Chin-Chen Chang;2.699;727;134;307;286;
Chin-Chen Chang;2.265;676;173;291;212;
Chin-Chen Chang;3.617;939;259;362;318;
Chin-Chen Chang;3.439;1.115;207;539;369;
Jim Gray;2.252;717;162;386;169;
Jim Gray;1.929;665;144;374;147;
Jim Gray;1.770;638;120;362;156;
Jim Gray;2.911;772;156;500;116;
Jim Gray;2.920;984;219;552;213;
Jim Gray;2.503;660;161;373;126;
Jim Gray;1.900;655;162;368;125;
Jim Gray;1.895;562;76;376;110;
Jim Gray;2.975;738;164;434;140;
Jim Gray;2.339;789;129;460;200;
Jim Gray;4.125;1.022;188;656;178;
Jim Gray;2.055;760;150;412;198;
Jim Gray;2.444;713;144;436;133;
Jim Gray;2.538;864;142;553;169;
Jim Gray;2.699;727;112;397;218;
Jim Gray;2.265;676;152;396;128;
Jim Gray;3.617;939;228;487;224;
Jim Gray;3.439;1.115;158;731;226;
Lei Chen;2.252;717;165;373;179;
Lei Chen;1.929;665;145;354;166;
Lei Chen;1.770;638;121;342;175;
Lei Chen;2.911;772;155;472;145;
Lei Chen;2.920;984;224;542;218;
Lei Chen;2.503;660;175;355;130;
Lei Chen;1.900;655;169;344;142;
Lei Chen;1.895;562;75;386;101;
Lei Chen;2.975;738;173;419;146;
Lei Chen;2.339;789;136;436;217;
Lei Chen;4.125;1.022;201;623;198;
Lei Chen;2.055;760;145;409;206;
Lei Chen;2.444;713;156;422;135;
Lei Chen;2.538;864;149;536;179;
Lei Chen;2.699;727;112;394;221;
Lei Chen;2.265;676;161;376;139;
Lei Chen;3.617;939;232;487;220;
Lei Chen;3.439;1.115;168;702;245;
Mita Nasipuri;2.252;717;171;322;224;
Mita Nasipuri;1.929;665;155;336;174;
Mita Nasipuri;1.770;638;133;310;195;
Mita Nasipuri;2.911;772;164;437;171;
Mita Nasipuri;2.920;984;240;478;266;
Mita Nasipuri;2.503;660;179;320;161;
Mita Nasipuri;1.900;655;175;303;177;
Mita Nasipuri;1.895;562;85;352;125;
Mita Nasipuri;2.975;738;181;398;159;
Mita Nasipuri;2.339;789;138;405;246;
Mita Nasipuri;4.125;1.022;209;559;254;
Mita Nasipuri;2.055;760;160;365;235;
Mita Nasipuri;2.444;713;161;393;159;
Mita Nasipuri;2.538;864;160;494;210;
Mita Nasipuri;2.699;727;125;344;258;
Mita Nasipuri;2.265;676;158;345;173;
Mita Nasipuri;3.617;939;247;427;265;
Mita Nasipuri;3.439;1.115;179;615;321;
Philippe Wenger;2.252;717;160;280;277;
Philippe Wenger;1.929;665;152;270;243;
Philippe Wenger;1.770;638;123;261;254;
Philippe Wenger;2.911;772;163;372;237;
Philippe Wenger;2.920;984;225;398;361;
Philippe Wenger;2.503;660;162;277;221;
Philippe Wenger;1.900;655;167;258;230;
Philippe Wenger;1.895;562;78;301;183;
Philippe Wenger;2.975;738;175;340;223;
Philippe Wenger;2.339;789;132;332;325;
Philippe Wenger;4.125;1.022;203;484;335;
Philippe Wenger;2.055;760;155;297;308;
Philippe Wenger;2.444;713;151;339;223;
Philippe Wenger;2.538;864;145;425;294;
Philippe Wenger;2.699;727;113;288;326;
Philippe Wenger;2.265;676;151;311;214;
Philippe Wenger;3.617;939;233;363;343;
Philippe Wenger;3.439;1.115;161;532;422;
Sanjeev R. Kulkarni;2.252;717;166;315;236;
Sanjeev R. Kulkarni;1.929;665;151;328;186;
Sanjeev R. Kulkarni;1.770;638;124;315;199;
Sanjeev R. Kulkarni;2.911;772;165;431;176;
Sanjeev R. Kulkarni;2.920;984;225;483;276;
Sanjeev R. Kulkarni;2.503;660;169;328;163;
Sanjeev R. Kulkarni;1.900;655;168;310;177;
Sanjeev R. Kulkarni;1.895;562;83;338;141;
Sanjeev R. Kulkarni;2.975;738;175;389;174;
Sanjeev R. Kulkarni;2.339;789;129;416;244;
Sanjeev R. Kulkarni;4.125;1.022;200;585;237;
Sanjeev R. Kulkarni;2.055;760;159;356;245;
Sanjeev R. Kulkarni;2.444;713;155;386;172;
Sanjeev R. Kulkarni;2.538;864;149;507;208;
Sanjeev R. Kulkarni;2.699;727;116;358;253;
Sanjeev R. Kulkarni;2.265;676;156;353;167;
Sanjeev R. Kulkarni;3.617;939;234;435;270;
Sanjeev R. Kulkarni;3.439;1.115;160;661;294;
Stefan Szeider;2.252;717;167;275;275;
Stefan Szeider;1.929;665;150;293;222;
Stefan Szeider;1.770;638;126;284;228;
Stefan Szeider;2.911;772;173;373;226;
Stefan Szeider;2.920;984;237;423;324;
Stefan Szeider;2.503;660;169;287;204;
Stefan Szeider;1.900;655;171;271;213;
Stefan Szeider;1.895;562;78;311;173;
Stefan Szeider;2.975;738;184;336;218;
Stefan Szeider;2.339;789;137;339;313;
Stefan Szeider;4.125;1.022;208;526;288;
Stefan Szeider;2.055;760;161;311;288;
Stefan Szeider;2.444;713;159;359;195;
Stefan Szeider;2.538;864;159;426;279;
Stefan Szeider;2.699;727;118;306;303;
Stefan Szeider;2.265;676;159;303;214;
Stefan Szeider;3.617;939;239;370;330;
Stefan Szeider;3.439;1.115;165;556;394;
